<?xml version="1.0" encoding="UTF-8" standalone="no"?>
<!-- Created with Inkscape (http://www.inkscape.org/) -->

<svg
   xmlns:dc="http://purl.org/dc/elements/1.1/"
   xmlns:cc="http://creativecommons.org/ns#"
   xmlns:rdf="http://www.w3.org/1999/02/22-rdf-syntax-ns#"
   xmlns:svg="http://www.w3.org/2000/svg"
   xmlns="http://www.w3.org/2000/svg"
   xmlns:sodipodi="http://sodipodi.sourceforge.net/DTD/sodipodi-0.dtd"
   xmlns:inkscape="http://www.inkscape.org/namespaces/inkscape"
   width="744.09448819"
   height="1052.3622047"
   id="svg2943"
   sodipodi:version="0.32"
   inkscape:version="0.48+devel r10511 custom"
   sodipodi:docname="shapes-f20.svg"
   version="1.1">
  <defs
     id="defs3" />
  <sodipodi:namedview
     id="base"
     pagecolor="#ffffff"
     bordercolor="#666666"
     borderopacity="1.0"
     inkscape:pageopacity="0.0"
     inkscape:pageshadow="2"
     inkscape:zoom="1.4335405"
     inkscape:cx="65.764134"
     inkscape:cy="950.01951"
     inkscape:document-units="px"
     inkscape:current-layer="layer1"
     inkscape:window-width="1242"
     inkscape:window-height="950"
     inkscape:window-x="0"
     inkscape:window-y="25"
     showgrid="false"
     inkscape:window-maximized="0" />
  <metadata
     id="metadata4">
    <rdf:RDF>
      <cc:Work
         rdf:about="">
        <dc:format>image/svg+xml</dc:format>
        <dc:type
           rdf:resource="http://purl.org/dc/dcmitype/StillImage" />
      </cc:Work>
    </rdf:RDF>
  </metadata>
  <g
     inkscape:label="Layer 1"
     inkscape:groupmode="layer"
     id="layer1">
    <path
       d="m -37.727824,155.36423 c 4.226838,5.71324 9.747141,7.86789 17.310538,4.35015 C 20.378686,140.74021 -107.09362,68.822322 -65.726248,50.955534 -24.358903,33.088718 -27.299962,184.56748 13.720936,166.91436 54.741867,149.26126 -72.16117,64.543544 -30.046877,48.886555 12.06739,33.229535 -19.37583,160.64638 22.781771,145.74483 64.939345,130.8436 -44.122927,37.357198 -1.7051887,21.965562 40.712554,6.5738995 4.601541,165.16266 47.567552,152.52873 90.533598,139.8948 -30.996676,29.036882 11.816976,16.11301 54.630599,3.1891634 27.014523,162.71469 69.962904,150.9017 112.91119,139.0887 -8.2656948,18.850538 35.648103,8.5966685 79.561873,-1.6571915 26.531787,141.71748 69.847898,132.16737 113.16398,122.61725 14.001556,19.638823 58.511962,12.660314 103.02246,5.681799 45.199986,135.32323 89.692359,130.20267 134.18473,125.08181 44.455938,9.9067597 88.8496,4.9305236 133.24314,-0.045709 74.746349,139.65021 119.16457,135.06021 163.58292,130.47022 80.239256,2.4166643 125.20575,0.6144903 170.17258,-1.1876836 83.527282,134.12295 128.51742,131.8009 173.50737,129.47917 103.65045,9.2090605 148.35684,9.1133242 193.06322,9.0175719 122.96678,121.91263 167.31346,122.68862 211.66045,123.4646 122.11457,-4.532299 167.0333,-2.810714 211.95174,-1.0891322 133.87582,128.98878 178.67893,132.07202 223.48235,135.15558 159.34329,2.1477079 203.97575,5.2573772 248.6079,8.3670481 154.84456,119.33607 199.595,124.2286 244.34574,129.12144 184.75132,-4.409585 228.87787,3.020899 273.00442,10.451395 167.71386,125.67619 211.75424,134.21112 255.79463,142.74605 198.6295,-6.594189 242.47574,1.9213497 286.32229,10.436879 202.07825,125.06859 245.47254,135.92008 288.86683,146.77126 239.7629,6.139283 282.51943,17.666444 325.27564,29.193591 209.99945,123.55998 252.73614,135.73866 c 42.73669,12.17898 -0.71732,-125.379075 41.8355,-112.09216 42.55252,13.286888 -66.61523,102.32079 -24.04645,116.43503 42.56909,14.11423 13.33689,-115.428428 55.1435,-99.754976 41.80693,15.673421 -83.28205,110.415736 -41.36993,125.724806 41.91181,15.30937 23.59509,-141.932269 64.91505,-125.230871 41.31996,16.701387 -75.91346,110.592941 -35.42673,128.685551 40.48703,18.09229 19.60098,-145.725804 59.91054,-126.037755 39.6877,19.384386 -87.01544,109.185645 -53.0986,131.996525"
       id="path1599"
       inkscape:connector-curvature="0"
       style="color:#000000;fill:none;stroke:#d9d9d9;stroke-width:0.69434953;stroke-linecap:butt;stroke-linejoin:miter;stroke-miterlimit:4;stroke-opacity:1;stroke-dasharray:none;stroke-dashoffset:0;marker:none;visibility:visible;display:inline;overflow:visible" />
    <path
       sodipodi:nodetypes="ccccccccccccccccccccccccccccccccccccccccccccccccccc"
       id="rect1295"
       d="M 328.54201,123.81662 C 326.50226,126.33081 324.65918,128.17055 323.54751,127.48466 C 320.22224,125.43311 323.88527,102.21779 320.54230,100.25953 C 316.85042,98.096696 314.17860,113.06059 310.46512,110.95505 C 307.10293,109.04831 319.71850,102.37766 316.25511,100.61295 C 312.43019,98.664292 301.56365,105.74122 297.69251,103.92795 C 294.18672,102.28551 295.32573,90.608372 291.81396,88.945014 C 287.93593,87.108108 288.46001,103.20580 284.47748,101.54108 C 280.87090,100.03392 291.16716,84.815992 287.57124,83.376180 C 283.60022,81.786136 267.02701,97.080222 263.04192,95.574515 C 259.43333,94.211128 273.82685,83.536574 270.15758,82.271258 C 266.10524,80.873929 255.72712,96.149322 251.63906,94.823234 C 247.93715,93.622360 259.14372,72.954702 255.44014,71.840761 C 251.34991,70.610616 244.74379,82.910140 240.58967,81.829275 C 236.82814,80.850547 245.51868,71.213653 241.73901,70.338054 C 237.56487,69.371133 231.74471,84.822422 227.59585,83.773939 C 223.83917,82.824540 220.75900,70.701123 216.94439,70.028678 C 212.73167,69.286051 213.91116,81.444490 209.69608,80.591768 C 205.87890,79.819615 212.48736,59.510061 208.63530,58.935238 C 204.38168,58.300419 201.72583,75.643809 197.49774,75.022947 C 193.66892,74.460740 196.29697,63.956334 192.41507,63.487524 C 188.12799,62.969799 177.65802,74.608228 173.41044,74.183197 C 169.56394,73.798323 181.60344,62.657062 177.69724,62.426787 C 173.38389,62.172508 161.79941,77.180201 157.49919,76.923410 C 153.60552,76.690870 160.42623,59.832865 156.52697,59.774964 C 152.22113,59.711034 148.03344,74.732348 143.75396,74.757772 C 139.87911,74.780764 139.44350,54.271061 135.57752,54.427132 C 131.30887,54.599502 136.70589,70.951979 132.39558,71.266184 C 128.49221,71.550740 127.81012,63.587428 123.95385,63.885306 C 119.69529,64.214232 123.46131,71.345680 119.22464,71.840761 C 115.38826,72.289064 108.03059,58.327266 104.19784,58.846834 C 99.965082,59.420611 101.53245,80.468068 97.258875,81.122116 C 93.388898,81.714394 97.889808,62.728836 94.076650,63.487524 C 89.865788,64.325364 91.664054,77.888025 87.491298,78.779687 C 83.712782,79.587124 81.038149,60.467341 77.281787,61.410251 C 73.133562,62.451554 80.963598,82.380092 76.839842,83.464563 C 73.105651,84.446610 64.905397,66.898040 61.194078,67.995608 C 57.095581,69.207714 64.086474,84.484321 59.956571,85.630239 C 56.216834,86.667896 45.986606,77.253886 42.321979,78.514495 C 38.274976,79.906638 48.885585,95.206344 44.841195,96.679494 C 41.178871,98.013498 34.981847,76.214195 31.361107,77.586366 C 27.362603,79.101709 32.081748,102.25188 28.090531,103.88346 C 24.476374,105.36121 15.803509,80.319307 12.267996,81.917679 C 8.3636201,83.682817 23.207895,101.74851 19.295297,103.57407 C 15.752369,105.22748 0.13202660,93.124298 -3.3335624,94.911585 C -7.1607000,96.885402 9.3019377,108.54665 5.4616334,110.46894 C 1.9841477,112.20992 -8.1189140,93.126880 -11.465807,95.044190 C -15.161888,97.161500 -9.8533880,113.49540 -13.587271,115.55161 C -16.968390,117.41348 -21.243009,107.84961 -24.592320,109.80610 C -28.291081,111.96666 -18.668764,121.17680 -22.338274,123.46276 C -24.535542,124.83155 -29.944155,119.44124 -34.359877,116.12628"
       style="opacity:1.0000000;color:#000000;fill:none;fill-opacity:1.0000000;fill-rule:evenodd;stroke:#000000;stroke-width:1.0607138;stroke-linecap:butt;stroke-linejoin:miter;marker:none;marker-start:none;marker-mid:none;marker-end:none;stroke-miterlimit:4.0000000;stroke-dasharray:none;stroke-dashoffset:0.0000000;stroke-opacity:1.0000000;visibility:visible;display:inline;overflow:visible;font-family:sans-serif" />
    <path
       sodipodi:type="star"
       id="path2853"
       sodipodi:sides="10"
       sodipodi:cx="-564.31024"
       sodipodi:cy="945.83423"
       sodipodi:r1="1251.4492"
       sodipodi:r2="717.9032"
       sodipodi:arg1="0.32910642"
       sodipodi:arg2="0.67945593"
       inkscape:flatsided="false"
       inkscape:rounded="0.35"
       inkscape:randomized="0.14"
       d="m 586.43223,1426.219 c -43.66694,223.1135 -607.308775,-342.5011 -726.13506,-152.5981 -112.60149,179.9548 553.02972,440.4026 382.1269,578.6439 -180.350604,145.8836 -273.957966,-407.7133 -456.44776,-305.8371 -172.92994,96.5395 -11.43599,801.2237 -215.59397,792.7725 -215.44417,-8.9183 -83.97998,-767.0057 -303.4365,-842.7383 -207.96014,-71.7653 -426.08804,622.4865 -600.81224,515.3607 -184.3833,-113.0478 354.61065,-587.5532 223.5367,-773.3203 -124.2075,-176.0356 -522.9092,318.6274 -603.8115,115.2102 -85.3747,-214.6625 303.1438,-189.7739 324.7705,-409.71964 20.4939,-208.42376 -506.8513,-141.74332 -455.7283,-344.72913 53.9492,-214.20722 691.1167,193.59139 847.25298,59.02145 147.95697,-127.52041 -367.80518,-470.08179 -183.98538,-585.997656 193.98177,-122.32389 341.58624,357.445236 556.78661,280.717456 203.92695,-72.70835 -292.40961,-729.01842 -70.12153,-723.9663 234.57653,5.33142 103.61406,441.758264 304.15778,552.87443 190.0381,105.29526 296.288645,-451.98381 460.077288,-332.45316 172.843152,126.138498 -122.179484,713.87182 42.572992,871.44228 156.1218,149.31602 631.61015,-214.95331 669.21746,-24.66077 39.6863,200.81222 -672.2694,93.02445 -650.5216,316.17894 20.60853,211.4643 497.47406,202.3732 456.09463,413.7986 z"
       transform="matrix(0.0144104,0.0144104,-0.0144104,0.0144104,203.3568,30.94721)" />
    <path
       sodipodi:type="star"
       id="path1638"
       sodipodi:sides="10"
       sodipodi:cx="-564.31024"
       sodipodi:cy="945.83423"
       sodipodi:r1="288.60358"
       sodipodi:r2="523.09772"
       sodipodi:arg1="1.0714496"
       sodipodi:arg2="1.3344848"
       inkscape:flatsided="false"
       inkscape:rounded="0.41"
       inkscape:randomized="0.2"
       d="m -461.01498,1115.3291 c -89.53767,41.7375 75.07078,313.4832 -16.99368,344.6233 -98.55072,33.334 -21.14623,-293.7718 -140.04376,-305.4283 -111.07211,-10.8893 -111.45065,326.296 -202.37556,279.9658 -97.33088,-49.5942 83.58718,-124.567 -8.1317,-203.0556 -85.68227,-73.3227 -217.38982,121.0007 -280.89132,31.0315 -67.9754,-96.3079 330.65304,-149.5298 269.93923,-249.9841 -56.71785,-93.8427 -231.23103,102.1816 -214.25013,-10.4625 18.1771,-120.58028 209.33226,-120.37425 257.35388,-210.48386 44.86102,-84.17891 -352.93008,-87.95676 -262.91148,-151.09584 96.36072,-67.58745 261.54722,92.71491 343.88087,25.88336 76.91474,-62.43294 -65.71691,-224.30388 28.27362,-248.04628 100.61249,-25.41514 -3.67347,213.88709 114.03828,241.53958 109.96438,25.83251 122.88359,-255.00632 205.82117,-199.99213 88.78082,58.89014 -72.68523,131.53151 16.17801,214.5668 83.01458,77.57021 253.339572,-68.3484 311.901111,11.5275 62.687403,85.50343 -314.707931,4.04964 -297.712031,106.41981 15.87729,95.63252 215.93985,192.38574 225.52673,293.11066 10.26231,107.8214 -238.60943,-200.82745 -268.63385,-95.33222 -28.04832,98.55192 356.812643,219.96252 305.416555,308.30762 -55.017125,94.5693 -290.540025,-227.7733 -386.385945,-183.0951 z"
       transform="matrix(-0.03240508,0,0,-0.03653582,215.3936,64.44452)" />
    <path
       sodipodi:type="star"
       id="path2855"
       sodipodi:sides="10"
       sodipodi:cx="-564.31024"
       sodipodi:cy="945.83423"
       sodipodi:r1="2299.585"
       sodipodi:r2="4673.7515"
       sodipodi:arg1="-0.33254745"
       sodipodi:arg2="-0.12863391"
       inkscape:flatsided="false"
       inkscape:rounded="0.35"
       inkscape:randomized="0.14"
       d="M 1192.8688,-27.843698 C 1675.7913,717.71691 3670.83,-107.03224 3770.3326,696.85954 3881.1484,1592.1513 1509.8829,832.05889 1356.5239,1780.419 1218.8213,2631.9614 3729.1797,2972.2635 3132.6328,3522.5978 2468.2604,4135.5035 1257.0666,1439.7789 647.27506,2181.9603 99.736942,2848.3727 1931.3943,4335.9732 1136.0147,4548.5008 250.20293,4785.1921 808.91559,3677.0843 -76.101097,3843.6207 -870.76674,3993.1554 -1082.0541,6375.0915 -1868.186,6042.6562 c -875.5127,-370.2322 215.8163,-2086.8972 -630.4076,-2610.746 -759.8332,-470.3693 -646.3981,1051.6631 -1051.3543,224.4523 -450.9984,-921.2622 1293.2811,-948.127 719.9027,-1705.4316 -514.8424,-679.9916 -2808.3383,351.2187 -2892.303,-503.15 -93.5112,-951.50779 2411.1934,176.5538 2464.1751,-721.76443 47.5727,-806.609219 -2506.3977,-1245.26979 -1870.9221,-1908.73907 707.7272,-738.9037 1743.644,498.17654 2577.4772,-27.5567 748.7074,-472.0613 -1189.9532,-1457.1132 -315.0606,-1613.5426 974.3653,-174.2149 1798.9144,855.0172 2800.748608,879.2065 899.557262,21.7198 -605.383598,-1743.6737 274.021632,-1624.437 979.39096,132.7935 -545.19149,2655.78962 315.58949,2977.19923 C 1296.5853,-303.25616 1973.6028,-2503.9856 2435.6134,-1768.5288 2950.1531,-949.4528 655.03939,-858.17226 1192.8688,-27.843698 z"
       transform="matrix(0.00513133,0.00888772,-0.00888772,0.00513133,121.9634,127.9393)" />
    <path
       sodipodi:type="star"
       id="path2856"
       sodipodi:sides="7"
       sodipodi:cx="-564.31024"
       sodipodi:cy="945.83423"
       sodipodi:r1="1962.3131"
       sodipodi:r2="987.2879"
       sodipodi:arg1="-1.6417338"
       sodipodi:arg2="-1.0812633"
       inkscape:flatsided="false"
       inkscape:rounded="0.4"
       inkscape:randomized="0.14"
       d="M -588.58303,-1237.4689 C -121.15492,-1260.9332 -648.76421,-200.55439 -213.4978,19.755764 165.26842,211.46833 350.16158,-417.03523 661.63312,-121.28353 1019.5666,218.58516 196.92272,90.889358 265.60457,553.29115 325.37111,955.6704 1598.6463,735.71092 1492.4835,1125.4341 1370.4846,1573.2919 434.90332,1408.3913 248.33488,1842.9019 c -162.350729,378.1085 678.15137,506.9432 313.48285,713.6348 -419.06577,237.5235 -421.32656,-855.0135 -908.2988,-886.5808 -423.76032,-27.4697 -847.10643,1206.8339 -1171.14693,947.696 -372.3773,-297.7933 553.10748,-986.907 143.9481,-1326.2952 -356.0481,-295.33352 -1063.3881,758.9531 -1074.5844,341.3816 -12.8664,-479.8603 1041.5073,-607.492 1031.8408,-1137.54586 -8.4117,-461.249666 -1145.2705,-356.26401 -833.0396,-656.03303 358.8062,-344.48528 684.5747,339.48668 1117.7455,40.25226 376.94267,-260.39199 136.38144,-1096.46207 543.13457,-1116.88057 z"
       transform="matrix(-0.01219143,0,0,-0.00920856,34.4855,55.79367)" />
    <path
       sodipodi:type="star"
       id="path2857"
       sodipodi:sides="7"
       sodipodi:cx="-564.31024"
       sodipodi:cy="945.83423"
       sodipodi:r1="1395.4882"
       sodipodi:r2="866.36334"
       sodipodi:arg1="-1.6706296"
       sodipodi:arg2="-1.0962105"
       inkscape:flatsided="false"
       inkscape:rounded="0.4"
       inkscape:randomized="0.14"
       d="m -624.46794,-581.42936 c 325.22226,56.05548 9.03859,753.22357 309.98212,918.22601 C -80.121454,465.29481 266.81929,-202.23998 445.73163,-43.137672 675.47011,161.16306 -20.106794,474.08963 128.6621,758.93731 244.51814,980.76678 1023.9948,714.25362 982.12458,952.96109 928.35974,1259.4815 282.8071,1023.2805 131.1532,1336.6483 c -118.10279,244.04 261.11175,693.6408 5.93231,752.211 -327.67184,75.2091 -268.13171,-428.5418 -571.07058,-381.8744 -235.91826,36.3429 -425.65853,907.5942 -636.89923,739.0497 -271.2507,-216.4252 198.88539,-667.1219 -80.9389,-853.5712 -217.9173,-145.2003 -642.0855,-86.6406 -720.6587,-317.7945 -100.8946,-296.82103 544.9527,-125.8811 616.9674,-441.64347 56.0825,-245.90478 -582.0787,-516.87966 -375.4476,-681.65006 265.3316,-211.579031 294.7135,291.45014 603.5402,157.10957 240.50345,-104.61977 149.68217,-933.56837 402.95396,-889.9143 z"
       transform="matrix(-0.00898742,0,0,-0.00678847,23.87873,128.7202)" />
    <path
       sodipodi:type="star"
       id="path2854"
       sodipodi:sides="7"
       sodipodi:cx="-564.31024"
       sodipodi:cy="945.83423"
       sodipodi:r1="1251.4492"
       sodipodi:r2="717.9032"
       sodipodi:arg1="0.32910642"
       sodipodi:arg2="0.77790537"
       inkscape:flatsided="false"
       inkscape:rounded="0.4"
       inkscape:randomized="0.14"
       d="m 586.43223,1426.219 c -43.92681,278.1567 -473.02278,-298.7733 -642.887031,-85.8732 -169.864259,212.9001 30.810646,778.2724 -228.271599,900.371 -259.08225,122.0987 -113.21197,-638.0452 -388.63365,-673.975 -275.42167,-35.9297 -331.61525,698.5263 -527.42825,520.9416 -195.8131,-177.5846 331.93679,-497.3525 148.7754,-716.2545 -183.1614,-218.902 -587.829,148.934 -658.4392,-126.8327 -70.6102,-275.76677 281.4604,-364.73955 412.2897,-596.46295 130.8293,-231.72341 -276.9233,-479.00469 -71.1275,-630.455981 205.7957,-151.451289 366.1167,220.766021 643.79893,138.725521 277.68225,-82.040494 182.27019,-375.84407 449.96961,-389.69005 267.6994304,-13.84598 -241.93849,460.31007 23.77701,552.88906 265.715507,92.57899 626.34909,-408.152299 720.348,-156.87684 93.9989,251.27545 -346.04925,473.05228 -354.59369,754.56414 -8.54444,281.5119 516.34909,230.7733 472.42227,508.9299 z"
       transform="matrix(0.0157534,0,0,0.0157534,262.2065,110.7547)" />
    <path
       transform="matrix(0.0157534,0,0,0.0157534,170.8244,135.1697)"
       d="m -243.68629,1096.3301 c -31.66946,187.6293 292.031941,205.474 168.188631,354.4949 -123.843311,149.0209 -286.203161,-273.0416 -452.903041,-184.9903 -166.69989,88.0513 66.84762,485.7093 -113.84462,439.5801 -180.69223,-46.1292 150.23295,-338.831 -32.76214,-413.8821 -182.99508,-75.0512 -457.31724,259.7874 -578.77184,103.8103 -121.4547,-155.9771 444.89197,-179.2086 432.06528,-357.1486 -12.82669,-177.94001 -402.61838,-55.06389 -345.92328,-244.34961 56.6951,-189.28572 305.06594,-15.8413 451.17239,-142.56668 146.10644,-126.72538 -325.36349,-272.92256 -157.70589,-375.45019 167.65765,-102.52762 216.43283,413.99078 406.72351,457.30125 190.29068,43.31047 142.11921,-528.03089 290.43496,-397.42793 148.315744,130.60296 -148.44854,281.40336 -72.59819,448.02329 75.85035,166.61993 316.865904,-148.25442 361.58124,32.56732 44.71534,180.82175 -323.98756,92.40903 -355.65701,280.03825 z"
       inkscape:randomized="0.14"
       inkscape:rounded="0.4"
       inkscape:flatsided="false"
       sodipodi:arg2="0.77809157"
       sodipodi:arg1="0.32929262"
       sodipodi:r2="717.9032"
       sodipodi:r1="292.23001"
       sodipodi:cy="945.83423"
       sodipodi:cx="-564.31024"
       sodipodi:sides="7"
       id="path1295"
       sodipodi:type="star" />
  </g>
</svg>
