<?xml version="1.0" encoding="UTF-8" standalone="no"?>
<!-- Created with Inkscape (http://www.inkscape.org/) -->
<svg
   xmlns:dc="http://purl.org/dc/elements/1.1/"
   xmlns:cc="http://web.resource.org/cc/"
   xmlns:rdf="http://www.w3.org/1999/02/22-rdf-syntax-ns#"
   xmlns:svg="http://www.w3.org/2000/svg"
   xmlns="http://www.w3.org/2000/svg"
   xmlns:sodipodi="http://sodipodi.sourceforge.net/DTD/sodipodi-0.dtd"
   xmlns:inkscape="http://www.inkscape.org/namespaces/inkscape"
   width="744.09448819"
   height="1052.3622047"
   id="svg15699"
   sodipodi:version="0.32"
   inkscape:version="0.45+devel"
   sodipodi:docbase="C:\Documents and Settings\ryan\Desktop\tut"
   sodipodi:docname="interpolate-f05.svg"
   inkscape:output_extension="org.inkscape.output.svg.inkscape">
  <defs
     id="defs15701" />
  <sodipodi:namedview
     id="base"
     pagecolor="#ffffff"
     bordercolor="#666666"
     borderopacity="1.0"
     gridtolerance="10000"
     guidetolerance="10"
     objecttolerance="10"
     inkscape:pageopacity="0.0"
     inkscape:pageshadow="2"
     inkscape:zoom="1.979899"
     inkscape:cx="151.86137"
     inkscape:cy="1007.4924"
     inkscape:document-units="px"
     inkscape:current-layer="layer1"
     inkscape:window-width="921"
     inkscape:window-height="807"
     inkscape:window-x="504"
     inkscape:window-y="184" />
  <metadata
     id="metadata15704">
    <rdf:RDF>
      <cc:Work
         rdf:about="">
        <dc:format>image/svg+xml</dc:format>
        <dc:type
           rdf:resource="http://purl.org/dc/dcmitype/StillImage" />
      </cc:Work>
    </rdf:RDF>
  </metadata>
  <g
     inkscape:label="Layer 1"
     inkscape:groupmode="layer"
     id="layer1">
    <g
       id="g2898"
       transform="translate(9.4344012e-2,0)">
      <path
         inkscape:export-ydpi="88.379997"
         inkscape:export-filename="C:\Documents and Settings\ryan\Desktop\interpolate1.png"
         inkscape:export-xdpi="88.379997"
         d="M 20.261606,2.0739219 C 30.3807,2.0739219 38.52711,10.220322 38.52711,20.339422 C 38.52711,30.458519 30.3807,38.604919 20.261606,38.604919 C 10.142522,38.604919 1.9961023,30.458519 1.9961023,20.339422 C 1.9961023,10.220322 10.142522,2.0739219 20.261606,2.0739219 z"
         id="path4455"
         style="fill:#00ccff;fill-opacity:1;stroke:#2e75ac;stroke-width:4.04815769;stroke-linejoin:round;stroke-miterlimit:4;stroke-opacity:1" />
      <path
         inkscape:export-ydpi="88.379997"
         inkscape:export-filename="C:\Documents and Settings\ryan\Desktop\interpolate1.png"
         d="M 263.67742,9.3801219 L 245.41192,38.604919 L 227.14641,9.3801219 L 263.67742,9.3801219 z"
         inkscape:export-xdpi="88.379997"
         sodipodi:nodetypes="cccc"
         id="path4457"
         style="fill:#00ccff;fill-opacity:1;stroke:#2e75ac;stroke-width:4.04815769;stroke-linejoin:round;stroke-miterlimit:4;stroke-opacity:1" />
      <rect
         height="2.9821236"
         x="-14.604343"
         y="-16.96793"
         transform="matrix(-0.7129787,0.7011857,-0.7011857,-0.7129787,0,0)"
         width="2.9821236"
         id="rect2473"
         style="opacity:1;fill:#00ff00;fill-opacity:1;stroke:none;stroke-width:1.20000005;stroke-linejoin:round;stroke-miterlimit:4;stroke-dasharray:none;stroke-opacity:1" />
      <rect
         height="2.9821236"
         x="-14.270543"
         y="-43.997108"
         transform="matrix(-0.7129787,0.7011857,-0.7011857,-0.7129787,0,0)"
         width="2.9821236"
         id="rect2475"
         style="opacity:1;fill:#cccccc;fill-opacity:1;stroke:none;stroke-width:1.20000005;stroke-linejoin:round;stroke-miterlimit:4;stroke-dasharray:none;stroke-opacity:1" />
      <rect
         height="2.9821236"
         x="10.894861"
         y="-43.647812"
         transform="matrix(-0.7129787,0.7011857,-0.7011857,-0.7129787,0,0)"
         width="2.9821236"
         id="rect2477"
         style="opacity:1;fill:#cccccc;fill-opacity:1;stroke:none;stroke-width:1.20000005;stroke-linejoin:round;stroke-miterlimit:4;stroke-dasharray:none;stroke-opacity:1" />
      <rect
         height="2.9821236"
         x="11.670061"
         y="-17.746189"
         transform="matrix(-0.7129787,0.7011857,-0.7011857,-0.7129787,0,0)"
         width="2.9821236"
         id="rect2479"
         style="opacity:1;fill:#cccccc;fill-opacity:1;stroke:none;stroke-width:1.20000005;stroke-linejoin:round;stroke-miterlimit:4;stroke-dasharray:none;stroke-opacity:1" />
      <rect
         height="2.9821236"
         x="-157.71265"
         y="-168.79997"
         transform="matrix(-0.7129787,0.7011857,-0.7011857,-0.7129787,0,0)"
         width="2.9821236"
         id="rect2481"
         style="opacity:1;fill:#cccccc;fill-opacity:1;stroke:none;stroke-width:1.20000005;stroke-linejoin:round;stroke-miterlimit:4;stroke-dasharray:none;stroke-opacity:1" />
      <rect
         height="2.9821236"
         x="-181.95563"
         y="-192.64201"
         transform="matrix(-0.7129787,0.7011857,-0.7011857,-0.7129787,0,0)"
         width="2.9821236"
         id="rect2483"
         style="opacity:1;fill:#00ff00;fill-opacity:1;stroke:none;stroke-width:1.20000005;stroke-linejoin:round;stroke-miterlimit:4;stroke-dasharray:none;stroke-opacity:1" />
      <rect
         height="2.9821236"
         x="-150.14905"
         y="-200.54918"
         transform="matrix(-0.7129787,0.7011857,-0.7011857,-0.7129787,0,0)"
         width="2.9821236"
         id="rect2485"
         style="opacity:1;fill:#cccccc;fill-opacity:1;stroke:none;stroke-width:1.20000005;stroke-linejoin:round;stroke-miterlimit:4;stroke-dasharray:none;stroke-opacity:1" />
    </g>
  </g>
</svg>
