<?xml version="1.0" encoding="UTF-8" standalone="no"?>
<!-- Created with Inkscape (http://www.inkscape.org/) -->

<svg
   xmlns:dc="http://purl.org/dc/elements/1.1/"
   xmlns:cc="http://creativecommons.org/ns#"
   xmlns:rdf="http://www.w3.org/1999/02/22-rdf-syntax-ns#"
   xmlns:svg="http://www.w3.org/2000/svg"
   xmlns="http://www.w3.org/2000/svg"
   xmlns:xlink="http://www.w3.org/1999/xlink"
   xmlns:sodipodi="http://sodipodi.sourceforge.net/DTD/sodipodi-0.dtd"
   xmlns:inkscape="http://www.inkscape.org/namespaces/inkscape"
   sodipodi:docname="elements-f15.svg"
   inkscape:version="0.48+devel r10003 custom"
   sodipodi:version="0.32"
   id="svg2344"
   height="1052.3622047"
   width="744.09448819"
   version="1.1">
  <defs
     id="defs3">
    <pattern
       patternTransform="matrix(1.791325e-2,1.217899e-2,-1.217899e-2,1.791325e-2,7.869785,48.26800)"
       id="pattern2540"
       xlink:href="#pattern2585"
       inkscape:collect="always" />
    <pattern
       patternTransform="matrix(6.881172e-2,2.278502e-2,-2.278502e-2,6.881172e-2,2.539170,57.95400)"
       id="pattern2530"
       xlink:href="#pattern2605"
       inkscape:collect="always" />
    <pattern
       patternTransform="matrix(3.406157e-3,-4.621636e-2,4.621636e-2,3.406157e-3,82.30269,104.9810)"
       id="pattern2527"
       xlink:href="#pattern3708"
       inkscape:collect="always" />
    <pattern
       patternTransform="matrix(4.788509e-2,4.961648e-2,-4.961648e-2,4.788509e-2,10.78534,68.53900)"
       id="pattern2524"
       xlink:href="#pattern3713"
       inkscape:collect="always" />
    <pattern
       patternTransform="matrix(-1.387339e-2,2.871778e-2,2.871778e-2,1.387339e-2,181.6024,17.65300)"
       id="pattern2521"
       xlink:href="#pattern3712"
       inkscape:collect="always" />
    <pattern
       patternTransform="matrix(1.387339e-2,2.871778e-2,-2.871778e-2,1.387339e-2,-14.53532,25.89300)"
       id="pattern2518"
       xlink:href="#pattern3710"
       inkscape:collect="always" />
    <pattern
       patternTransform="matrix(4.788509e-2,4.961648e-2,-4.961648e-2,4.788509e-2,176.9535,68.53900)"
       id="pattern2514"
       xlink:href="#pattern1878"
       inkscape:collect="always" />
    <pattern
       patternTransform="matrix(1.387339e-2,2.871778e-2,-2.871778e-2,1.387339e-2,151.6328,25.89300)"
       id="pattern2511"
       xlink:href="#pattern1880"
       inkscape:collect="always" />
    <pattern
       patternTransform="matrix(2.154722e-2,6.550186e-2,-6.550186e-2,2.154722e-2,207.2501,17.43600)"
       id="pattern2508"
       xlink:href="#pattern1887"
       inkscape:collect="always" />
    <pattern
       patternTransform="matrix(-1.387339e-2,2.871778e-2,2.871778e-2,1.387339e-2,347.7705,17.65300)"
       id="pattern2505"
       xlink:href="#pattern1879"
       inkscape:collect="always" />
    <pattern
       patternTransform="matrix(-1.224270e-3,6.894402e-2,-6.894402e-2,-1.224270e-3,143.8084,-3.970000)"
       id="pattern2502"
       xlink:href="#pattern1884"
       inkscape:collect="always" />
    <pattern
       patternTransform="matrix(-1.437973e-3,8.097856e-2,-8.097856e-2,-1.437973e-3,161.8816,-4.179000)"
       id="pattern2489"
       xlink:href="#pattern1889"
       inkscape:collect="always" />
    <linearGradient
       id="linearGradient2362">
      <stop
         id="stop2363"
         offset="0.0000000"
         style="stop-color:#00990f;stop-opacity:1.0000000;" />
      <stop
         id="stop2366"
         offset="1.0000000"
         style="stop-color:#00ff1a;stop-opacity:1.0000000;" />
    </linearGradient>
    <linearGradient
       id="linearGradient2606">
      <stop
         id="stop2607"
         offset="0.0000000"
         style="stop-color:#565c3b;stop-opacity:1.0000000;" />
      <stop
         id="stop2609"
         offset="1.0000000"
         style="stop-color:#9e96d0;stop-opacity:1.0000000;" />
    </linearGradient>
    <linearGradient
       id="linearGradient2370">
      <stop
         id="stop2371"
         offset="0.0000000"
         style="stop-color:#0c0099;stop-opacity:1.0000000;" />
      <stop
         id="stop2372"
         offset="1.0000000"
         style="stop-color:#0069ff;stop-opacity:1.0000000;" />
    </linearGradient>
    <pattern
       patternTransform="matrix(1.791325e-2,1.217899e-2,-1.217899e-2,1.791325e-2,7.869785,2842.633)"
       id="pattern3516"
       xlink:href="#pattern2410"
       inkscape:collect="always" />
    <pattern
       patternTransform="matrix(1.791325e-2,1.217899e-2,-1.217899e-2,1.791325e-2,7.869785,2840.002)"
       id="pattern2585"
       xlink:href="#pattern3516"
       inkscape:collect="always" />
    <linearGradient
       id="linearGradient1514">
      <stop
         id="stop1515"
         offset="0.0000000"
         style="stop-color:#484848;stop-opacity:1.0000000;" />
      <stop
         id="stop1631"
         offset="0.68666667"
         style="stop-color:#929292;stop-opacity:1.0000000;" />
      <stop
         id="stop1516"
         offset="1.0000000"
         style="stop-color:#d8d8d8;stop-opacity:1.0000000;" />
    </linearGradient>
    <linearGradient
       id="linearGradient1806">
      <stop
         id="stop1807"
         offset="0.0000000"
         style="stop-color:#000000;stop-opacity:0.40784314;" />
      <stop
         id="stop3276"
         offset="0.64777780"
         style="stop-color:#000000;stop-opacity:0.079096042;" />
      <stop
         id="stop1808"
         offset="1.0000000"
         style="stop-color:#000000;stop-opacity:0.0000000;" />
    </linearGradient>
    <pattern
       patternTransform="matrix(3.602221e-2,-6.290160e-2,6.290160e-2,3.602221e-2,5.039169,2849.688)"
       id="pattern2399"
       xlink:href="#pattern2397"
       inkscape:collect="always" />
    <pattern
       patternTransform="matrix(6.881172e-2,2.278502e-2,-2.278502e-2,6.881172e-2,5.039169,2849.688)"
       id="pattern2403"
       xlink:href="#pattern2399"
       inkscape:collect="always" />
    <pattern
       patternTransform="matrix(6.881172e-2,2.278502e-2,-2.278502e-2,6.881172e-2,2.539170,2849.688)"
       id="pattern2605"
       xlink:href="#pattern2403"
       inkscape:collect="always" />
    <pattern
       patternTransform="matrix(1.387339e-2,2.871778e-2,-2.871778e-2,1.387339e-2,151.6328,2817.627)"
       id="pattern1880"
       xlink:href="#pattern3710"
       inkscape:collect="always" />
    <pattern
       patternTransform="matrix(2.154722e-2,6.550186e-2,-6.550186e-2,2.154722e-2,207.2501,2809.170)"
       id="pattern1887"
       xlink:href="#pattern1884"
       inkscape:collect="always" />
    <pattern
       patternTransform="matrix(3.406157e-3,-4.621636e-2,4.621636e-2,3.406157e-3,82.30269,2896.715)"
       id="pattern3708"
       xlink:href="#pattern3706"
       inkscape:collect="always" />
    <pattern
       patternTransform="matrix(1.387339e-2,2.871778e-2,-2.871778e-2,1.387339e-2,-14.53532,2817.627)"
       id="pattern3710"
       xlink:href="#pattern3708"
       inkscape:collect="always" />
    <pattern
       patternTransform="matrix(-1.387339e-2,2.871778e-2,2.871778e-2,1.387339e-2,181.6024,2809.387)"
       id="pattern3712"
       xlink:href="#pattern3710"
       inkscape:collect="always" />
    <pattern
       patternTransform="matrix(-1.387339e-2,2.871778e-2,2.871778e-2,1.387339e-2,347.7705,2809.387)"
       id="pattern1879"
       xlink:href="#pattern3712"
       inkscape:collect="always" />
    <pattern
       patternTransform="matrix(3.111259e-2,-4.850659e-2,-4.850659e-2,-3.111259e-2,139.5469,2993.389)"
       id="pattern3180"
       xlink:href="#pattern3176"
       inkscape:collect="always" />
    <pattern
       patternTransform="matrix(2.588574e-2,-4.035758e-2,-4.035758e-2,-2.588574e-2,110.3458,3027.344)"
       id="pattern2598"
       xlink:href="#pattern3180"
       inkscape:collect="always" />
    <pattern
       patternTransform="matrix(8.058895e-2,-4.848785e-2,-4.848785e-2,-8.058895e-2,-100.9765,2912.705)"
       id="pattern3178"
       xlink:href="#pattern3176"
       inkscape:collect="always" />
    <pattern
       patternTransform="matrix(6.705017e-2,-4.034199e-2,-4.034199e-2,-6.705017e-2,-89.77020,2960.215)"
       id="pattern2599"
       xlink:href="#pattern3178"
       inkscape:collect="always" />
    <pattern
       patternTransform="matrix(4.937844e-2,-2.970946e-2,-2.970946e-2,-4.937844e-2,65.70686,2891.160)"
       id="pattern3176"
       xlink:href="#pattern3173"
       inkscape:collect="always" />
    <pattern
       patternTransform="matrix(4.937844e-2,-2.970946e-2,-2.970946e-2,-4.937844e-2,107.0526,2920.398)"
       id="pattern3181"
       xlink:href="#pattern3176"
       inkscape:collect="always" />
    <pattern
       patternTransform="matrix(4.108296e-2,-2.471833e-2,-2.471833e-2,-4.108296e-2,83.31043,2966.615)"
       id="pattern2596"
       xlink:href="#pattern3181"
       inkscape:collect="always" />
    <pattern
       id="pattern2650"
       patternTransform="matrix(0.235877,0.000000,0.000000,0.235877,23.89020,1385.940)"
       height="24.565200"
       width="24.565119"
       patternUnits="userSpaceOnUse">
      <path
         id="path2649"
         d="M 0.62500000,23.940200 L 23.940119,0.62500000"
         style="fill:none;fill-opacity:0.75000000;fill-rule:evenodd;stroke:#000000;stroke-width:1.0000000pt;stroke-linecap:butt;stroke-linejoin:miter;stroke-opacity:1.0000000;" />
    </pattern>
    <pattern
       patternTransform="matrix(0.235877,0.000000,0.000000,0.235877,7.403921,1355.414)"
       id="pattern2655"
       xlink:href="#pattern2650"
       inkscape:collect="always" />
    <pattern
       patternTransform="matrix(0.193713,0.134586,-0.134586,0.193713,7.403921,1377.914)"
       id="pattern2664"
       xlink:href="#pattern2655"
       inkscape:collect="always" />
    <pattern
       patternTransform="matrix(3.602221e-2,-6.290160e-2,6.290160e-2,3.602221e-2,7.403921,1401.211)"
       id="pattern2666"
       xlink:href="#pattern2664"
       inkscape:collect="always" />
    <pattern
       patternTransform="matrix(3.602221e-2,-6.290160e-2,6.290160e-2,3.602221e-2,5.039169,2839.013)"
       id="pattern2397"
       xlink:href="#pattern2666"
       inkscape:collect="always" />
    <pattern
       patternTransform="matrix(1.791325e-2,1.217899e-2,-1.217899e-2,1.791325e-2,7.869785,2889.957)"
       id="pattern2410"
       xlink:href="#pattern2397"
       inkscape:collect="always" />
    <pattern
       patternTransform="matrix(4.937844e-2,2.970946e-2,-2.970946e-2,4.937844e-2,7.869785,2842.513)"
       id="pattern3173"
       xlink:href="#pattern2410"
       inkscape:collect="always" />
    <pattern
       patternTransform="matrix(4.937844e-2,2.970946e-2,-2.970946e-2,4.937844e-2,50.08138,2871.272)"
       id="pattern3182"
       xlink:href="#pattern3173"
       inkscape:collect="always" />
    <pattern
       patternTransform="matrix(4.108296e-2,2.471833e-2,-2.471833e-2,4.108296e-2,35.91026,2925.742)"
       id="pattern2597"
       xlink:href="#pattern3182"
       inkscape:collect="always" />
    <pattern
       id="pattern3695"
       patternTransform="matrix(6.389029e-2,6.620037e-2,-6.620037e-2,6.389029e-2,11.88013,2864.769)"
       height="205.67261"
       width="291.92533"
       patternUnits="userSpaceOnUse">
      <path
         id="path3658"
         d="M 233.64408,85.642895 C 227.39177,85.642895 222.36355,100.53130 222.08158,119.08040 C 209.12080,106.88970 195.74839,100.31990 191.45658,104.61170 C 187.44777,108.62050 193.02978,120.58540 203.67533,132.70540 C 187.67801,133.77440 175.36283,138.27860 175.36283,143.92410 C 175.36283,149.85070 188.86658,154.56470 206.05033,155.29910 C 193.75465,168.31280 187.14594,181.80100 191.45658,186.11170 C 195.77049,190.42560 209.24626,183.80060 222.26908,171.48670 C 223.00208,188.67490 227.71641,202.17420 233.64408,202.17410 C 239.24712,202.17420 243.71634,190.05430 244.83158,174.23670 C 257.91112,186.66460 271.52855,193.35220 275.86283,189.01790 C 280.41164,184.46910 273.00926,169.72690 259.36283,156.08040 C 259.12461,155.84220 258.88293,155.68980 258.64408,155.45540 C 277.11391,155.14500 291.92533,150.15750 291.92533,143.92410 C 291.92533,137.95320 278.23321,133.19490 260.86283,132.51790 C 271.39971,120.46140 276.91376,108.60020 272.92533,104.61170 C 268.93690,100.62320 257.10685,106.16860 245.05033,116.70540 C 244.37477,99.330595 239.61606,85.642795 233.64408,85.642895 z "
         style="fill:#ff0000;fill-opacity:1.0000000;fill-rule:evenodd;stroke:none;stroke-width:2.2500000;stroke-linecap:butt;stroke-linejoin:miter;stroke-miterlimit:4.0000000;stroke-opacity:1.0000000;" />
      <path
         transform="translate(371.3076,-2712.318)"
         d="M -117.26799 2856.2305 A 20.394436 20.394436 0 1 0 -158.05687,2856.2305 A 20.394436 20.394436 0 1 0 -117.26799 2856.2305 z"
         sodipodi:ry="20.394436"
         sodipodi:rx="20.394436"
         sodipodi:cy="2856.2305"
         sodipodi:cx="-137.66243"
         id="path3667"
         style="fill:#cfe300;fill-opacity:1.0000000;fill-rule:evenodd;stroke:#000000;stroke-width:1.8750000;stroke-linecap:butt;stroke-linejoin:miter;stroke-miterlimit:4.0000000;stroke-opacity:0.40331492;"
         sodipodi:type="arc" />
      <path
         id="path3671"
         d="M 213.44854,13.665195 C 208.75738,9.5317950 195.14211,17.378595 182.66795,31.109695 C 181.00251,13.394695 175.31231,-0.37500500 169.25487,0.0078950027 C 163.59685,0.36559500 159.87522,13.033095 159.85026,29.164495 C 147.14065,19.390995 134.92280,14.629095 131.19062,18.864895 C 127.27261,23.311695 134.28821,35.775795 146.69581,47.686795 C 128.86705,49.322595 114.99159,55.073895 115.37614,61.157995 C 115.76103,67.246595 130.25172,71.184495 148.16342,70.554495 C 137.35048,83.935595 131.96344,97.180795 136.41108,101.09940 C 140.61502,104.80360 151.98064,98.664495 163.27425,87.533695 C 164.87199,105.50520 170.66815,119.52530 176.78556,119.13860 C 183.20572,118.73270 187.39756,102.77790 186.18008,83.517295 C 186.15882,83.181095 186.07823,82.906995 186.05398,82.573195 C 200.11724,94.550495 214.52754,100.60000 218.64837,95.923095 C 222.59567,91.443095 215.46802,78.821195 202.88245,66.829795 C 218.75876,64.749595 230.73730,59.495295 230.38151,53.865995 C 230.02571,48.236695 217.48353,44.576695 201.47167,44.512095 C 212.45107,31.029095 217.92942,17.613095 213.44854,13.665195 z "
         style="fill:#c70600;fill-opacity:1.0000000;fill-rule:evenodd;stroke:none;stroke-width:2.2500000;stroke-linecap:butt;stroke-linejoin:miter;stroke-miterlimit:4.0000000;stroke-opacity:1.0000000;" />
      <path
         transform="matrix(0.750308,0.661089,-0.661089,0.750308,2166.439,-1994.659)"
         d="M -117.26799 2856.2305 A 20.394436 20.394436 0 1 0 -158.05687,2856.2305 A 20.394436 20.394436 0 1 0 -117.26799 2856.2305 z"
         sodipodi:ry="20.394436"
         sodipodi:rx="20.394436"
         sodipodi:cy="2856.2305"
         sodipodi:cx="-137.66243"
         id="path3672"
         style="fill:#d3e900;fill-opacity:1.0000000;fill-rule:evenodd;stroke:#000000;stroke-width:1.8750000;stroke-linecap:butt;stroke-linejoin:miter;stroke-miterlimit:4.0000000;stroke-opacity:0.40331492;"
         sodipodi:type="arc" />
      <path
         id="path3673"
         d="M 98.080203,13.665095 C 93.389043,9.5316950 79.773773,17.378495 67.299613,31.109595 C 65.634173,13.394595 59.943973,-0.37510500 53.886533,0.0077950027 C 48.228513,0.36549500 44.506883,13.032995 44.481923,29.164395 C 31.772313,19.390895 19.554463,14.628995 15.822283,18.864795 C 11.904273,23.311595 18.919873,35.775695 31.327473,47.686695 C 13.498713,49.322495 -0.37674692,55.073795 0.0078030782,61.157895 C 0.39269308,67.246495 14.883383,71.184395 32.795083,70.554395 C 21.982143,83.935495 16.595103,97.180695 21.042743,101.09930 C 25.246683,104.80350 36.612303,98.664395 47.905913,87.533595 C 49.503653,105.50510 55.299813,119.52520 61.417223,119.13850 C 67.837383,118.73260 72.029223,102.77780 70.811743,83.517195 C 70.790483,83.180995 70.709893,82.906895 70.685643,82.573095 C 84.748903,94.550395 99.159203,100.59990 103.28003,95.922995 C 107.22733,91.442995 100.09968,78.821095 87.514113,66.829695 C 103.39042,64.749495 115.36896,59.495195 115.01317,53.865895 C 114.65737,48.236595 102.11519,44.576595 86.103333,44.511995 C 97.082733,31.028995 102.56108,17.612995 98.080203,13.665095 z "
         style="fill:#ffd400;fill-opacity:1.0000000;fill-rule:evenodd;stroke:none;stroke-width:2.2500000;stroke-linecap:butt;stroke-linejoin:miter;stroke-miterlimit:4.0000000;stroke-opacity:1.0000000;" />
      <path
         transform="matrix(0.750308,0.661089,-0.661089,0.750308,2051.071,-1994.659)"
         d="M -117.26799 2856.2305 A 20.394436 20.394436 0 1 0 -158.05687,2856.2305 A 20.394436 20.394436 0 1 0 -117.26799 2856.2305 z"
         sodipodi:ry="20.394436"
         sodipodi:rx="20.394436"
         sodipodi:cy="2856.2305"
         sodipodi:cx="-137.66243"
         id="path3674"
         style="fill:#d3e900;fill-opacity:1.0000000;fill-rule:evenodd;stroke:#000000;stroke-width:1.8750000;stroke-linecap:butt;stroke-linejoin:miter;stroke-miterlimit:4.0000000;stroke-opacity:0.40331492;"
         sodipodi:type="arc" />
      <path
         id="path3675"
         d="M 159.88467,100.19140 C 155.19351,96.057995 141.57824,103.90480 129.10408,117.63590 C 127.43864,99.920895 121.74844,86.151195 115.69100,86.534095 C 110.03298,86.891795 106.31135,99.559295 106.28639,115.69070 C 93.576783,105.91720 81.358933,101.15530 77.626753,105.39110 C 73.708743,109.83790 80.724343,122.30200 93.131943,134.21300 C 75.303183,135.84880 61.427723,141.60010 61.812273,147.68420 C 62.197163,153.77280 76.687853,157.71070 94.599553,157.08070 C 83.786613,170.46180 78.399573,183.70700 82.847213,187.62560 C 87.051153,191.32980 98.416773,185.19070 109.71038,174.05990 C 111.30812,192.03140 117.10428,206.05150 123.22169,205.66480 C 129.64185,205.25890 133.83369,189.30410 132.61621,170.04350 C 132.59495,169.70730 132.51436,169.43320 132.49011,169.09940 C 146.55337,181.07670 160.96367,187.12620 165.08450,182.44930 C 169.03180,177.96930 161.90415,165.34740 149.31858,153.35600 C 165.19489,151.27580 177.17343,146.02150 176.81764,140.39220 C 176.46184,134.76290 163.91966,131.10290 147.90780,131.03830 C 158.88720,117.55530 164.36555,104.13930 159.88467,100.19140 z "
         style="fill:#ffd400;fill-opacity:1.0000000;fill-rule:evenodd;stroke:none;stroke-width:2.2500000;stroke-linecap:butt;stroke-linejoin:miter;stroke-miterlimit:4.0000000;stroke-opacity:1.0000000;" />
      <path
         transform="matrix(0.750308,0.661089,-0.661089,0.750308,2112.875,-1908.133)"
         d="M -117.26799 2856.2305 A 20.394436 20.394436 0 1 0 -158.05687,2856.2305 A 20.394436 20.394436 0 1 0 -117.26799 2856.2305 z"
         sodipodi:ry="20.394436"
         sodipodi:rx="20.394436"
         sodipodi:cy="2856.2305"
         sodipodi:cx="-137.66243"
         id="path3676"
         style="fill:#d3e900;fill-opacity:1.0000000;fill-rule:evenodd;stroke:#000000;stroke-width:1.8750000;stroke-linecap:butt;stroke-linejoin:miter;stroke-miterlimit:4.0000000;stroke-opacity:0.40331492;"
         sodipodi:type="arc" />
    </pattern>
    <pattern
       patternTransform="matrix(4.136665e-2,4.286235e-2,-4.286235e-2,4.136665e-2,10.33947,2863.228)"
       id="pattern3706"
       xlink:href="#pattern3695"
       inkscape:collect="always" />
    <pattern
       patternTransform="matrix(4.788509e-2,4.961648e-2,-4.961648e-2,4.788509e-2,10.78534,2860.273)"
       id="pattern3713"
       xlink:href="#pattern3706"
       inkscape:collect="always" />
    <pattern
       patternTransform="matrix(4.788509e-2,4.961648e-2,-4.961648e-2,4.788509e-2,176.9535,2860.273)"
       id="pattern1878"
       xlink:href="#pattern3713"
       inkscape:collect="always" />
    <pattern
       patternTransform="matrix(-1.224270e-3,6.894402e-2,-6.894402e-2,-1.224270e-3,143.8084,2787.764)"
       id="pattern1884"
       xlink:href="#pattern1878"
       inkscape:collect="always" />
    <pattern
       patternTransform="matrix(-1.437973e-3,8.097856e-2,-8.097856e-2,-1.437973e-3,161.8816,2787.555)"
       id="pattern1889"
       xlink:href="#pattern1884"
       inkscape:collect="always" />
    <linearGradient
       y2="7705.3171"
       x2="57.759572"
       y1="7363.2863"
       x1="59.411894"
       gradientTransform="matrix(2.670812,0.000000,0.000000,0.374418,0.000000,-2791.734)"
       gradientUnits="userSpaceOnUse"
       id="linearGradient2533"
       xlink:href="#linearGradient1806"
       inkscape:collect="always" />
    <linearGradient
       y2="4922.9503"
       x2="76.654681"
       y1="4976.3121"
       x1="56.535281"
       gradientTransform="matrix(1.739219,0.000000,0.000000,0.574971,0.000000,-2791.734)"
       gradientUnits="userSpaceOnUse"
       id="linearGradient2536"
       xlink:href="#linearGradient1514"
       inkscape:collect="always" />
    <linearGradient
       y2="7122.1139"
       x2="61.151963"
       y1="7033.7111"
       x1="61.151963"
       gradientTransform="matrix(2.510466,0.000000,0.000000,0.398332,0.000000,-2791.734)"
       gradientUnits="userSpaceOnUse"
       id="linearGradient2543"
       xlink:href="#linearGradient2370"
       inkscape:collect="always" />
    <linearGradient
       y2="4937.6909"
       x2="62.070538"
       y1="5033.0958"
       x1="60.735537"
       gradientTransform="matrix(1.743346,0.000000,0.000000,0.573610,0.000000,-2791.734)"
       gradientUnits="userSpaceOnUse"
       id="linearGradient2546"
       xlink:href="#linearGradient2606"
       inkscape:collect="always" />
    <linearGradient
       y2="6566.1847"
       x2="67.972538"
       y1="6776.8955"
       x1="67.972538"
       gradientTransform="matrix(2.341667,0.000000,0.000000,0.427046,0.000000,-2791.734)"
       gradientUnits="userSpaceOnUse"
       id="linearGradient2549"
       xlink:href="#linearGradient2362"
       inkscape:collect="always" />
  </defs>
  <sodipodi:namedview
     inkscape:window-y="25"
     inkscape:window-x="2"
     inkscape:window-height="511"
     inkscape:window-width="755"
     inkscape:current-layer="layer1"
     inkscape:document-units="px"
     inkscape:cy="997.27674"
     inkscape:cx="205.81412"
     inkscape:zoom="2.8"
     inkscape:pageshadow="2"
     inkscape:pageopacity="0.0"
     borderopacity="1.0"
     bordercolor="#666666"
     pagecolor="#ffffff"
     id="base"
     showgrid="false"
     inkscape:window-maximized="0" />
  <metadata
     id="metadata4">
    <rdf:RDF>
      <cc:Work
         rdf:about="">
        <dc:format>image/svg+xml</dc:format>
        <dc:type
           rdf:resource="http://purl.org/dc/dcmitype/StillImage" />
      </cc:Work>
    </rdf:RDF>
  </metadata>
  <g
     id="layer1"
     inkscape:groupmode="layer"
     inkscape:label="Layer 1">
    <rect
       y="45.538704"
       x="7.5522251"
       height="55.703911"
       width="305.44699"
       id="rect2359"
       style="fill:url(#linearGradient2549);fill-opacity:1.0000000;fill-rule:evenodd;stroke:none;stroke-width:0.49831799" />
    <path
       sodipodi:nodetypes="cccc"
       id="path2373"
       d="M 175.12223,48.593700 L 171.72446,101.43180 L 14.533837,101.43180 L 175.12223,48.593700 z "
       style="fill:url(#linearGradient2546);fill-opacity:1.0000000;fill-rule:evenodd;stroke:none;stroke-width:1.0000000pt;stroke-linecap:butt;stroke-linejoin:miter;stroke-opacity:1.0000000" />
    <rect
       y="0.11731836"
       x="7.5752616"
       height="48.418873"
       width="305.15701"
       id="rect1734"
       style="fill:url(#linearGradient2543);fill-opacity:1.0000000;fill-rule:evenodd;stroke:none;stroke-width:0.34503776" />
    <rect
       id="rect2396"
       y="48.268440"
       x="7.8697805"
       height="52.932312"
       width="304.85226"
       style="fill:url(#pattern2540);stroke:none" />
    <path
       sodipodi:nodetypes="cc"
       id="path2382"
       d="M 103.54267,100.43100 L 174.25964,49.594500"
       style="fill:none;fill-opacity:0.75000000;fill-rule:evenodd;stroke:#b0af00;stroke-width:1.2500000;stroke-linecap:butt;stroke-linejoin:miter;stroke-miterlimit:4.0000000;stroke-dasharray:5.0000000 2.5000000 ;stroke-dashoffset:0.0000000;stroke-opacity:1.0000000" />
    <path
       sodipodi:nodetypes="cccc"
       id="path2384"
       d="M 175.12223,48.593700 L 171.72446,101.43180 L 14.533837,101.43180 L 175.12223,48.593700 z "
       style="fill:none;fill-opacity:1.0000000;fill-rule:evenodd;stroke:url(#linearGradient2536);stroke-width:0.37500000;stroke-linecap:butt;stroke-linejoin:miter;stroke-miterlimit:4.0000000;stroke-opacity:1.0000000" />
    <path
       id="path2387"
       d="M 66.375000,5.7660000 L 37.000000,27.109800 L 26.343750,16.422200 L 7.5625000,31.453500 L 7.5312500,48.453500 L 133.96875,48.453500 L 138.43750,48.453500 L 312.03125,48.453500 L 312.00000,9.8598000 L 296.50000,23.859800 L 274.43750,21.359800 L 255.84375,9.3598000 L 240.09375,28.266000 L 214.90625,15.047200 L 191.62500,33.922200 L 170.21875,28.266000 L 136.56250,47.016000 L 103.71875,21.766000 L 93.062500,32.453500 L 66.375000,5.7660000 z "
       style="fill:url(#linearGradient2533);fill-opacity:1.0000000;fill-rule:evenodd;stroke:none;stroke-width:1.0000000pt;stroke-linecap:butt;stroke-linejoin:miter;stroke-opacity:1.0000000" />
    <path
       sodipodi:nodetypes="cccc"
       id="rect2398"
       d="M 12.724174,100.91360 L 169.57686,100.06270 L 172.72260,48.624100 L 12.724174,100.91360 z "
       style="fill:url(#pattern2530);stroke:none" />
    <path
       sodipodi:nodetypes="ccccccccccccccccccccccccccc"
       id="path3707"
       d="M 75.087220,78.225400 L 141.82287,58.785900 L 136.84705,55.563500 L 126.89758,58.168200 L 114.03463,64.539700 L 109.91215,57.550400 L 101.41943,63.068500 L 94.383458,55.475900 L 85.890741,60.993900 L 75.941278,57.771500 L 64.535069,64.746300 L 56.042352,60.067200 L 51.919870,52.474600 L 40.513662,57.992700 L 36.391181,51.856800 L 24.984972,54.461400 L 15.035510,57.066000 L 7.9995369,53.843600 L 7.1787003,70.656300 L 19.415796,67.383100 L 25.825911,72.850300 L 27.865790,85.601200 L 47.386612,67.760500 L 47.969746,81.968200 L 57.293351,80.151700 L 66.616956,73.965000 L 75.087220,78.225400 z "
       style="fill:url(#pattern2527);stroke:none" />
    <path
       sodipodi:nodetypes="ccccccccccccccccccc"
       id="rect3704"
       d="M 7.5099089,67.447400 L 7.5099089,102.43850 L 23.888394,98.760800 L 45.023770,88.524500 L 61.389581,85.442300 L 68.216266,77.590800 L 75.042951,76.893500 L 89.023981,73.811400 L 95.850666,73.114100 L 112.21648,67.647200 L 128.58229,64.565200 L 100.03384,71.781700 L 96.321026,60.329100 L 59.630428,59.982200 L 66.155221,73.944000 L 50.229172,67.260900 L 39.362008,60.577900 L 22.059679,59.226200 L 7.5099089,67.447400 z "
       style="fill:url(#pattern2524);stroke:none" />
    <path
       sodipodi:nodetypes="ccccccccccccccccccccccccccccccccccccc"
       id="path3711"
       d="M 151.65561,54.474200 L 140.09228,52.971500 L 130.75066,55.058800 L 101.51449,64.283500 L 86.595827,65.871000 L 81.124573,54.847700 L 63.292425,57.538500 L 53.347405,57.065700 L 31.748425,53.679600 L 7.6859779,52.206100 L 8.1320573,48.084200 L 25.059330,47.052400 L 30.655782,48.080900 L 35.222160,48.079300 L 41.848687,49.107700 L 46.415065,48.076000 L 53.041592,46.014200 L 58.638044,47.042700 L 64.234497,49.101100 L 70.861024,48.069500 L 75.427402,47.037800 L 81.023854,48.066300 L 87.650382,49.094600 L 92.731796,48.063000 L 97.813211,47.031300 L 103.40966,47.029600 L 109.03845,48.046600 L 115.69732,48.033600 L 120.81106,47.505500 L 126.95489,49.037600 L 132.06864,47.479500 L 136.15232,47.981400 L 144.31968,47.955300 L 151.97199,48.959400 L 163.74461,47.903200 L 172.42700,48.907200 L 151.65561,54.474200 z "
       style="fill:url(#pattern2521);stroke:none" />
    <path
       sodipodi:nodetypes="cccccccccccccccccccc"
       id="path3709"
       d="M 7.6859782,55.504300 L 24.914723,55.031700 L 36.316487,63.299400 L 59.372213,64.283500 L 72.230722,63.810900 L 88.002721,58.968000 L 103.77472,65.779100 L 113.71974,65.306300 L 127.07812,61.920200 L 155.26087,53.236200 L 152.24389,49.089800 L 120.38482,55.244100 L 103.97688,54.188000 L 81.388478,54.161900 L 65.716463,49.256000 L 49.014374,50.530500 L 37.241762,54.109800 L 20.833813,47.903200 L 8.5461623,48.907200 L 7.6859782,55.504300 z "
       style="fill:url(#pattern2518);stroke:none" />
    <rect
       y="0.24891016"
       x="7.5752616"
       height="100.99377"
       width="305.15701"
       id="rect2179"
       style="fill:none;fill-opacity:1.0000000;fill-rule:evenodd;stroke:#000000;stroke-width:0.49831799" />
    <path
       sodipodi:nodetypes="ccccccccccccc"
       id="path1875"
       d="M 173.67805,67.447400 L 171.19793,99.958400 L 207.41739,101.24090 L 312.87690,100.92510 L 310.62621,67.647200 L 294.75044,64.565200 L 262.48917,60.329100 L 225.79857,59.982200 L 212.48240,73.944000 L 213.91720,54.860300 L 185.68918,53.137500 L 175.82721,56.746100 L 173.67805,67.447400 z "
       style="fill:url(#pattern2514);stroke:none" />
    <path
       sodipodi:nodetypes="cccccccccccccccccccc"
       id="path1877"
       d="M 173.85412,55.504300 L 191.08287,55.031700 L 202.48463,63.299400 L 215.61987,64.283500 L 228.47838,63.810900 L 254.17087,58.968000 L 260.02238,65.779100 L 279.88789,65.306300 L 293.24627,61.920200 L 311.50853,53.236200 L 308.49155,49.089800 L 286.55297,55.244100 L 270.14503,54.188000 L 247.55662,54.161900 L 231.88461,49.256000 L 215.18252,50.530500 L 203.40991,54.109800 L 187.00196,47.903200 L 174.71431,48.907200 L 173.85412,55.504300 z "
       style="fill:url(#pattern2511);stroke:none" />
    <path
       sodipodi:nodetypes="cccccccc"
       id="path1885"
       d="M 230.20954,62.779800 L 236.41176,69.163600 L 280.92962,79.951600 L 312.42059,91.205800 L 310.88030,68.094800 L 312.14579,55.924200 L 250.11976,61.751800 L 230.20954,62.779800 z "
       style="fill:url(#pattern2508);stroke:none" />
    <path
       sodipodi:nodetypes="ccccccccccccccccccccccccccccccccc"
       id="path1876"
       d="M 306.26043,52.971500 L 296.91881,55.058800 L 267.68264,64.283500 L 252.76397,65.871000 L 247.29272,52.367600 L 229.46057,57.538500 L 219.51555,57.065700 L 197.91657,53.679600 L 173.85412,52.206100 L 174.30020,48.084200 L 191.22748,47.052400 L 196.82393,48.080900 L 201.39031,48.079300 L 208.01683,49.107700 L 212.58321,48.076000 L 219.20974,46.014200 L 224.80619,47.042700 L 230.40264,49.101100 L 237.02917,48.069500 L 241.59555,47.037800 L 247.19200,48.066300 L 253.81853,49.094600 L 258.89994,48.063000 L 263.98136,47.031300 L 269.57781,47.029600 L 275.20660,48.046600 L 281.86547,48.033600 L 286.97921,47.505500 L 293.12304,49.037600 L 298.23679,47.479500 L 302.32047,47.981400 L 310.48783,47.955300 L 306.26043,52.971500 z "
       style="fill:url(#pattern2505);stroke:none" />
    <path
       sodipodi:nodetypes="cccccccc"
       id="path1883"
       d="M 173.86533,62.414000 L 173.40506,83.828100 L 194.31734,82.479500 L 217.51236,81.474800 L 224.97686,77.988300 L 224.07918,54.279200 L 184.47273,53.708400 L 173.86533,62.414000 z "
       style="fill:url(#pattern2502);stroke:none" />
    <path
       sodipodi:nodetypes="ccccc"
       id="path3143"
       d="M 198.15800,59.686711 L 198.16215,69.705845 L 246.07439,97.388548 L 247.15919,77.065152 L 198.15800,59.686711 z "
       style="fill:#845206;fill-opacity:1.0000000;fill-rule:evenodd;stroke:#000000;stroke-width:1.0557491pt;stroke-linecap:butt;stroke-linejoin:round;stroke-opacity:1.0000000" />
    <path
       sodipodi:nodetypes="ccccc"
       id="path3144"
       d="M 246.07438,97.388548 L 247.16327,76.699571 L 290.50342,64.721820 L 290.50342,84.321874 L 246.07438,97.388548 z "
       style="fill:#734805;fill-opacity:1.0000000;fill-rule:evenodd;stroke:#000000;stroke-width:1.0557491pt;stroke-linecap:butt;stroke-linejoin:round;stroke-opacity:1.0000000" />
    <path
       sodipodi:nodetypes="ccccc"
       id="path3141"
       d="M 195.95061,58.852795 L 213.47369,46.605310 L 269.66841,52.016567 L 244.98951,77.788412 L 195.95061,58.852795 z "
       style="fill:#950f06;fill-opacity:1.0000000;fill-rule:evenodd;stroke:#000000;stroke-width:1.0557491pt;stroke-linecap:round;stroke-linejoin:round;stroke-opacity:1.0000000" />
    <path
       sodipodi:nodetypes="ccccc"
       id="path3517"
       d="M 256.01917,94.520887 L 256.66227,79.842292 L 282.25896,72.768278 L 282.25896,86.803736 L 256.01917,94.520887 z "
       style="fill:#8a5606;fill-opacity:1.0000000;fill-rule:evenodd;stroke:#000000;stroke-width:0.62352548pt;stroke-linecap:butt;stroke-linejoin:round;stroke-opacity:1.0000000" />
    <path
       sodipodi:nodetypes="cccc"
       id="path3142"
       d="M 270.03001,52.016651 L 292.89271,64.721820 L 245.35115,77.788495 L 270.03001,52.016651 z "
       style="fill:#7f3e06;fill-opacity:1.0000000;fill-rule:evenodd;stroke:#000000;stroke-width:1.0557491pt;stroke-linecap:round;stroke-linejoin:round;stroke-opacity:1.0000000" />
    <g
       transform="translate(0.000000,-2863.636)"
       id="g2600">
      <path
         sodipodi:nodetypes="ccccc"
         id="rect3172"
         d="M 196.35511,2926.6549 L 196.35511,2937.6586 L 244.12224,2965.2619 L 246.79994,2944.6495 L 196.35511,2926.6549 z "
         style="fill:url(#pattern2597);stroke:none" />
      <path
         sodipodi:nodetypes="ccccc"
         id="path3175"
         d="M 246.72435,2963.6034 L 245.49451,2945.7449 L 289.74013,2933.2692 L 289.74013,2950.5753 L 246.72435,2963.6034 z "
         style="fill:url(#pattern2596);stroke:none" />
      <path
         sodipodi:nodetypes="ccccc"
         id="path3177"
         d="M 196.31214,2925.2258 L 214.13457,2913.6771 L 267.43780,2920.0753 L 246.43832,2942.9475 L 196.31214,2925.2258 z "
         style="fill:url(#pattern2599);stroke:none" />
      <path
         sodipodi:nodetypes="cccc"
         id="path3179"
         d="M 247.23359,2943.6153 L 269.91214,2918.7001 L 291.63069,2931.2741 L 247.23359,2943.6153 z "
         style="fill:url(#pattern2598);stroke:none" />
    </g>
    <path
       sodipodi:nodetypes="ccccccccccccccccccccccccccccccc"
       id="path1888"
       d="M 194.70500,68.832000 L 187.98490,93.605200 L 203.40523,98.013800 L 215.31814,97.161200 L 226.35419,100.69290 L 242.65137,100.71720 L 270.77206,98.660200 L 292.66655,89.179300 L 287.22688,85.178300 L 284.50705,83.616200 L 280.91036,83.807800 L 276.43682,87.068400 L 274.59384,88.575300 L 270.03103,90.712300 L 261.96079,92.849200 L 254.76742,91.478700 L 245.82033,97.123100 L 243.88808,92.245200 L 240.31806,92.252600 L 235.87119,90.506200 L 235.80860,86.129300 L 233.11544,81.752400 L 225.85023,85.289300 L 221.21557,82.688200 L 220.08834,74.826000 L 216.52896,72.871500 L 212.96957,73.547600 L 210.23508,76.653300 L 206.51982,72.342600 L 200.17398,71.025800 L 194.70500,68.832000 z "
       style="fill:url(#pattern2489);stroke:none" />
  </g>
</svg>
