<?xml version="1.0" encoding="UTF-8" standalone="no"?>
<!-- Created with Inkscape (http://www.inkscape.org/) -->

<svg
   xmlns:dc="http://purl.org/dc/elements/1.1/"
   xmlns:cc="http://creativecommons.org/ns#"
   xmlns:rdf="http://www.w3.org/1999/02/22-rdf-syntax-ns#"
   xmlns:svg="http://www.w3.org/2000/svg"
   xmlns="http://www.w3.org/2000/svg"
   xmlns:sodipodi="http://sodipodi.sourceforge.net/DTD/sodipodi-0.dtd"
   xmlns:inkscape="http://www.inkscape.org/namespaces/inkscape"
   sodipodi:docname="elements-f01.svg"
   inkscape:version="0.48+devel r10003 custom"
   sodipodi:version="0.32"
   id="svg1831"
   height="1052.3622047"
   width="744.09448819"
   version="1.1">
  <defs
     id="defs3" />
  <sodipodi:namedview
     inkscape:window-y="25"
     inkscape:window-x="4"
     inkscape:window-height="513"
     inkscape:window-width="753"
     inkscape:current-layer="layer1"
     inkscape:document-units="px"
     inkscape:cy="958.00978"
     inkscape:cx="184.17068"
     inkscape:zoom="1.4"
     inkscape:pageshadow="2"
     inkscape:pageopacity="0.0"
     borderopacity="1.0"
     bordercolor="#666666"
     pagecolor="#ffffff"
     id="base"
     showgrid="false"
     inkscape:window-maximized="0" />
  <metadata
     id="metadata4">
    <rdf:RDF>
      <cc:Work
         rdf:about="">
        <dc:format>image/svg+xml</dc:format>
        <dc:type
           rdf:resource="http://purl.org/dc/dcmitype/StillImage" />
      </cc:Work>
    </rdf:RDF>
  </metadata>
  <g
     id="layer1"
     inkscape:groupmode="layer"
     inkscape:label="Layer 1">
    <rect
       y="0.32083896"
       x="7.5752616"
       height="167.44186"
       width="305.15701"
       id="rect1801"
       style="fill:#e1e1e1;fill-rule:evenodd;stroke:#000000;stroke-width:0.64164001" />
    <path
       transform="matrix(1.353293,-4.258673e-17,4.258673e-17,1.353293,309.8639,-242.9186)"
       style="fill:#0000ff;fill-opacity:0.30459798;fill-rule:evenodd;stroke:#000000;stroke-width:1.25;stroke-opacity:0.33000004"
       d="m -40.288639,236.81662 c 0,25.42949 -20.614674,46.04416 -46.044163,46.04416 -25.429488,0 -46.044158,-20.61467 -46.044158,-46.04416 0,-25.42949 20.61467,-46.04416 46.044158,-46.04416 25.429489,0 46.044163,20.61467 46.044163,46.04416 z"
       id="path1721" />
    <path
       transform="matrix(1.353293,4.258673e-17,4.258673e-17,-1.353293,248.6654,398.0456)"
       style="fill:#ff00f5;fill-opacity:0.28160897;fill-rule:evenodd;stroke:#000000;stroke-width:1.25;stroke-opacity:0.32758598"
       d="m -40.288639,236.81662 c 0,25.42949 -20.614674,46.04416 -46.044163,46.04416 -25.429488,0 -46.044158,-20.61467 -46.044158,-46.04416 0,-25.42949 20.61467,-46.04416 46.044158,-46.04416 25.429489,0 46.044163,20.61467 46.044163,46.04416 z"
       id="path1722" />
    <text
       sodipodi:linespacing="100.00000%"
       id="text1752"
       y="154.377"
       x="102.01891"
       style="font-size:10.000000;font-style:normal;font-variant:normal;font-weight:bold;font-stretch:normal;line-height:100.00000%;writing-mode:lr-tb;text-anchor:start;fill:#ff00f7;fill-opacity:0.59770101;stroke:none;stroke-width:3.0000000pt;stroke-linecap:butt;stroke-linejoin:miter;stroke-opacity:1.0000000;font-family:sans-serif"
       xml:space="preserve"><tspan
         style="fill:#ff00f7;fill-opacity:0.59770101"
         dy="0 0 0 0 0 0 0 0"
         dx="0 0 0 0 0 0 0 0"
         id="tspan1732"
         sodipodi:role="line"
         y="154.37700"
         x="102.01891">Elements</tspan></text>
    <text
       sodipodi:linespacing="100.00000%"
       id="text1755"
       y="154.377"
       x="168.60974"
       style="font-size:10.000000;font-style:normal;font-variant:normal;font-weight:bold;font-stretch:normal;line-height:100.00000%;writing-mode:lr-tb;text-anchor:start;fill:#0000ff;fill-opacity:0.60000002;stroke:none;stroke-width:3.0000000pt;stroke-linecap:butt;stroke-linejoin:miter;stroke-opacity:1.0000000;font-family:sans-serif"
       xml:space="preserve"><tspan
         style="fill:#0000ff;fill-opacity:0.60000002"
         dy="0 0 0 0 0 0 0 0 0 0"
         dx="0 0 0 0 0 0 0 0 0 0"
         id="tspan1738"
         sodipodi:role="line"
         y="154.37700"
         x="168.60974">Principles</tspan></text>
    <text
       sodipodi:linespacing="100.00000%"
       id="text1758"
       y="100.13462"
       x="90.54583"
       style="font-size:8.0000000;font-style:normal;font-variant:normal;font-weight:normal;font-stretch:normal;line-height:100.00000%;writing-mode:lr-tb;text-anchor:start;fill:#000000;fill-opacity:1.0000000;stroke:none;stroke-width:3.0000000pt;stroke-linecap:butt;stroke-linejoin:miter;stroke-opacity:1.0000000;font-family:sans-serif"
       xml:space="preserve"><tspan
         dx="0 0 0 0"
         dy="0 0 0 0"
         id="tspan1741"
         sodipodi:role="line"
         y="100.13462"
         x="90.545830">Color</tspan></text>
    <text
       sodipodi:linespacing="100.00000%"
       id="text1761"
       y="32.645866"
       x="116.87344"
       style="font-size:8.0000000;font-style:normal;font-variant:normal;font-weight:normal;font-stretch:normal;line-height:100.00000%;writing-mode:lr-tb;text-anchor:start;fill:#000000;fill-opacity:1.0000000;stroke:none;stroke-width:3.0000000pt;stroke-linecap:butt;stroke-linejoin:miter;stroke-opacity:1.0000000;font-family:sans-serif"
       xml:space="preserve"><tspan
         dx="0 0 0 0"
         dy="0 0 0 0"
         id="tspan1744"
         sodipodi:role="line"
         y="32.645866"
         x="116.87344">Line</tspan></text>
    <text
       sodipodi:linespacing="100.00000%"
       id="text1764"
       y="47.565285"
       x="95.306877"
       style="font-size:8.0000000;font-style:normal;font-variant:normal;font-weight:normal;font-stretch:normal;line-height:100.00000%;writing-mode:lr-tb;text-anchor:start;fill:#000000;fill-opacity:1.0000000;stroke:none;stroke-width:3.0000000pt;stroke-linecap:butt;stroke-linejoin:miter;stroke-opacity:1.0000000;font-family:sans-serif"
       xml:space="preserve"><tspan
         dx="0 0 0 0"
         dy="0 0 0 0"
         id="tspan1747"
         sodipodi:role="line"
         y="47.565285"
         x="95.306877">Shape</tspan></text>
    <text
       sodipodi:linespacing="100.00000%"
       id="text1767"
       y="83.103767"
       x="83.459221"
       style="font-size:8.0000000;font-style:normal;font-variant:normal;font-weight:normal;font-stretch:normal;line-height:100.00000%;writing-mode:lr-tb;text-anchor:start;fill:#000000;fill-opacity:1.0000000;stroke:none;stroke-width:3.0000000pt;stroke-linecap:butt;stroke-linejoin:miter;stroke-opacity:1.0000000;font-family:sans-serif"
       xml:space="preserve"><tspan
         dy="0 0 0 0 0"
         dx="0 0 0 0 0"
         id="tspan1750"
         sodipodi:role="line"
         y="83.103767"
         x="83.459221">Space</tspan></text>
    <text
       sodipodi:linespacing="100.00000%"
       id="text1770"
       y="114.99348"
       x="101.17574"
       style="font-size:8.0000000;font-style:normal;font-variant:normal;font-weight:normal;font-stretch:normal;line-height:100.00000%;writing-mode:lr-tb;text-anchor:start;fill:#000000;fill-opacity:1.0000000;stroke:none;stroke-width:3.0000000pt;stroke-linecap:butt;stroke-linejoin:miter;stroke-opacity:1.0000000;font-family:sans-serif"
       xml:space="preserve"><tspan
         dy="0 0 0 0 0 0 0"
         dx="0 0 0 0 0 0 0"
         id="tspan1753"
         sodipodi:role="line"
         y="114.99348"
         x="101.17574">Texture</tspan></text>
    <text
       sodipodi:linespacing="100.00000%"
       id="text1773"
       y="129.16661"
       x="118.89227"
       style="font-size:8.0000000;font-style:normal;font-variant:normal;font-weight:normal;font-stretch:normal;line-height:100.00000%;writing-mode:lr-tb;text-anchor:start;fill:#000000;fill-opacity:1.0000000;stroke:none;stroke-width:3.0000000pt;stroke-linecap:butt;stroke-linejoin:miter;stroke-opacity:1.0000000;font-family:sans-serif"
       xml:space="preserve"><tspan
         dy="0 0 0 0 0"
         dx="0 0 0 0 0"
         id="tspan1756"
         sodipodi:role="line"
         y="129.16661"
         x="118.89227">Value</tspan></text>
    <text
       sodipodi:linespacing="100.00000%"
       id="text1776"
       y="65.387245"
       x="83.459221"
       style="font-size:8.0000000;font-style:normal;font-variant:normal;font-weight:normal;font-stretch:normal;line-height:100.00000%;writing-mode:lr-tb;text-anchor:start;fill:#000000;fill-opacity:1.0000000;stroke:none;stroke-width:3.0000000pt;stroke-linecap:butt;stroke-linejoin:miter;stroke-opacity:1.0000000;font-family:sans-serif"
       xml:space="preserve"><tspan
         dy="0 0 0 0"
         dx="0 0 0 0"
         id="tspan1759"
         sodipodi:role="line"
         y="65.387245"
         x="83.459221">Size</tspan></text>
    <text
       sodipodi:linespacing="100.00000%"
       id="text1779"
       y="34.637756"
       x="184.08173"
       style="font-size:8.0000000;font-style:normal;font-variant:normal;font-weight:normal;font-stretch:normal;line-height:100.00000%;writing-mode:lr-tb;text-anchor:start;fill:#000000;fill-opacity:1.0000000;stroke:none;stroke-width:3.0000000pt;stroke-linecap:butt;stroke-linejoin:miter;stroke-opacity:1.0000000;font-family:sans-serif"
       xml:space="preserve"><tspan
         dy="0 0 0 0 0 0 0"
         dx="0 0 0 0 0 0 0"
         id="tspan1762"
         sodipodi:role="line"
         y="34.637756"
         x="184.08173">Balance</tspan></text>
    <text
       sodipodi:linespacing="100.00000%"
       id="text1782"
       y="51.614323"
       x="194.48068"
       style="font-size:8.0000000;font-style:normal;font-variant:normal;font-weight:normal;font-stretch:normal;line-height:100.00000%;writing-mode:lr-tb;text-anchor:start;fill:#000000;fill-opacity:1.0000000;stroke:none;stroke-width:3.0000000pt;stroke-linecap:butt;stroke-linejoin:miter;stroke-opacity:1.0000000;font-family:sans-serif"
       xml:space="preserve"><tspan
         dy="0 0 0 0 0 0 0 0"
         dx="0 0 0 0 0 0 0 0"
         id="tspan1765"
         sodipodi:role="line"
         y="51.614323"
         x="194.48068">Contrast</tspan></text>
    <text
       sodipodi:linespacing="100.00000%"
       id="text1785"
       y="71.448875"
       x="199.68022"
       style="font-size:8.0000000;font-style:normal;font-variant:normal;font-weight:normal;font-stretch:normal;line-height:100.00000%;writing-mode:lr-tb;text-anchor:start;fill:#000000;fill-opacity:1.0000000;stroke:none;stroke-width:3.0000000pt;stroke-linecap:butt;stroke-linejoin:miter;stroke-opacity:1.0000000;font-family:sans-serif"
       xml:space="preserve"><tspan
         dy="0 0 0 0 0 0 0 0"
         dx="0 0 0 0 0 0 0 0"
         id="tspan1768"
         sodipodi:role="line"
         y="71.448875"
         x="199.68022">Emphasis</tspan></text>
    <text
       sodipodi:linespacing="100.00000%"
       id="text1788"
       y="91.283318"
       x="199.44937"
       style="font-size:8.0000000;font-style:normal;font-variant:normal;font-weight:normal;font-stretch:normal;line-height:100.00000%;writing-mode:lr-tb;text-anchor:start;fill:#000000;fill-opacity:1.0000000;stroke:none;stroke-width:3.0000000pt;stroke-linecap:butt;stroke-linejoin:miter;stroke-opacity:1.0000000;font-family:sans-serif"
       xml:space="preserve"><tspan
         dy="0 0 0 0 0 0 0 0 0 0"
         dx="0 0 0 0 0 0 0 0 0 0"
         id="tspan1771"
         sodipodi:role="line"
         y="91.283318"
         x="199.44937">Proportion</tspan></text>
    <text
       sodipodi:linespacing="100.00000%"
       id="text1791"
       y="111.11781"
       x="193.78815"
       style="font-size:8.0000000;font-style:normal;font-variant:normal;font-weight:normal;font-stretch:normal;line-height:100.00000%;writing-mode:lr-tb;text-anchor:start;fill:#000000;fill-opacity:1.0000000;stroke:none;stroke-width:3.0000000pt;stroke-linecap:butt;stroke-linejoin:miter;stroke-opacity:1.0000000;font-family:sans-serif"
       xml:space="preserve"><tspan
         dy="0 0 0 0 0 0 0"
         dx="0 0 0 0 0 0 0"
         id="tspan1774"
         sodipodi:role="line"
         y="111.11781"
         x="193.78815">Pattern</tspan></text>
    <text
       transform="scale(1.000025,0.999975)"
       sodipodi:linespacing="100.00000%"
       id="text1803"
       y="129.04839"
       x="178.64687"
       style="font-size:7.9998040;font-style:normal;font-variant:normal;font-weight:normal;font-stretch:normal;line-height:100.00000%;writing-mode:lr-tb;text-anchor:start;fill:#000000;fill-opacity:1.0000000;stroke:none;stroke-width:3.0000000pt;stroke-linecap:butt;stroke-linejoin:miter;stroke-opacity:1.0000000;font-family:sans-serif"
       xml:space="preserve"><tspan
         dy="0 0 0 0 0 0 0 0 0"
         dx="0 0 0 0 0 0 0 0 0"
         id="tspan1786"
         sodipodi:role="line"
         y="129.04839"
         x="178.64687">Gradation</tspan></text>
    <text
       sodipodi:linespacing="100.00000%"
       id="text1806"
       y="80.613045"
       x="133.85378"
       style="font-size:8.0000000;font-style:normal;font-weight:bold;line-height:100.00000%;writing-mode:lr-tb;text-anchor:start;fill:#ffffff;fill-opacity:1.0000000;stroke:none;stroke-width:3.0000000pt;stroke-linecap:butt;stroke-linejoin:miter;stroke-opacity:1.0000000;font-family:sans-serif"
       xml:space="preserve"><tspan
         style="fill:#ffffff;fill-opacity:1.0000000"
         dy="0 0 0 0 0 0 0 0 0 0 0"
         dx="0 0 0 0 0 0 0 0 0 0 0"
         id="tspan1792"
         sodipodi:role="line"
         y="80.613045"
         x="133.85378">Composition</tspan></text>
    <text
       sodipodi:linespacing="100.00000%"
       id="text1809"
       y="12.44677"
       x="12.456144"
       style="font-size:10.000000;font-style:normal;font-variant:normal;font-weight:bold;font-stretch:normal;line-height:100.00000%;writing-mode:lr-tb;text-anchor:start;fill:#000000;fill-opacity:0.21476497;stroke:none;stroke-width:3.0000000pt;stroke-linecap:butt;stroke-linejoin:miter;stroke-opacity:1.0000000;font-family:sans-serif"
       xml:space="preserve"><tspan
         dy="0 0 0 0 0 0 0 0"
         dx="0 0 0 0 0 0 0 0"
         style="fill:#000000;fill-opacity:0.21476497"
         id="tspan1803"
         sodipodi:role="line"
         y="12.446770"
         x="12.456144">Overview</tspan></text>
  </g>
</svg>
