<?xml version="1.0" encoding="UTF-8" standalone="no"?>
<!-- Created with Inkscape (http://www.inkscape.org/) -->
<svg
   xmlns:dc="http://purl.org/dc/elements/1.1/"
   xmlns:cc="http://web.resource.org/cc/"
   xmlns:rdf="http://www.w3.org/1999/02/22-rdf-syntax-ns#"
   xmlns:svg="http://www.w3.org/2000/svg"
   xmlns="http://www.w3.org/2000/svg"
   xmlns:xlink="http://www.w3.org/1999/xlink"
   xmlns:sodipodi="http://sodipodi.sourceforge.net/DTD/sodipodi-0.dtd"
   xmlns:inkscape="http://www.inkscape.org/namespaces/inkscape"
   sodipodi:docname="tipsandtricks-f06.svg"
   sodipodi:docbase="/home/aaron/notes/inkdoc/tipsandtricks"
   inkscape:version="0.41+cvs"
   sodipodi:version="0.32"
   id="svg4002"
   height="1052.3622047"
   width="744.09448819">
  <defs
     id="defs3">
    <linearGradient
       id="linearGradient1077">
      <stop
         style="stop-color:#ff2ee1;stop-opacity:0.529229;"
         offset="0.00000000"
         id="stop1078" />
      <stop
         style="stop-color:#000000;stop-opacity:0;"
         offset="1.00000000"
         id="stop1079" />
    </linearGradient>
    <radialGradient
       xlink:href="#linearGradient1077"
       id="radialGradient1061"
       cx="92.072090"
       cy="494.12567"
       r="40.514123"
       fx="122.43660"
       fy="495.35104"
       gradientTransform="matrix(0.930312,0.000000,0.000000,0.853811,22.35642,1160.277)"
       gradientUnits="userSpaceOnUse" />
    <linearGradient
       id="linearGradient1056">
      <stop
         style="stop-color:#0082ab;stop-opacity:0;"
         offset="0.00000000"
         id="stop1057" />
      <stop
         style="stop-color:#000000;stop-opacity:1;"
         offset="1.00000000"
         id="stop1058" />
    </linearGradient>
    <radialGradient
       xlink:href="#linearGradient1056"
       id="radialGradient1069"
       cx="187.87231"
       cy="494.12567"
       r="40.258078"
       fx="164.25548"
       fy="495.96375"
       gradientTransform="matrix(0.930312,0.000000,0.000000,0.853811,16.07898,1160.277)"
       gradientUnits="userSpaceOnUse" />
    <radialGradient
       r="40.514123"
       fy="495.35104"
       fx="122.43660"
       cy="494.12567"
       cx="92.072090"
       gradientTransform="matrix(0.930312,0.000000,0.000000,0.853811,22.35642,1160.277)"
       gradientUnits="userSpaceOnUse"
       id="radialGradient4026"
       xlink:href="#linearGradient1077"
       inkscape:collect="always" />
    <radialGradient
       r="40.258078"
       fy="495.96375"
       fx="164.25548"
       cy="494.12567"
       cx="187.87231"
       gradientTransform="matrix(0.930312,0.000000,0.000000,0.853811,16.07898,1160.277)"
       gradientUnits="userSpaceOnUse"
       id="radialGradient4028"
       xlink:href="#linearGradient1056"
       inkscape:collect="always" />
    <radialGradient
       r="40.258078"
       fy="495.96375"
       fx="164.25548"
       cy="494.12567"
       cx="187.87231"
       gradientTransform="matrix(0.930312,0.000000,0.000000,0.853811,16.07898,-387.2360)"
       gradientUnits="userSpaceOnUse"
       id="radialGradient4031"
       xlink:href="#linearGradient1056"
       inkscape:collect="always" />
    <radialGradient
       r="40.514123"
       fy="495.35104"
       fx="122.43660"
       cy="494.12567"
       cx="92.072090"
       gradientTransform="matrix(0.930312,0.000000,0.000000,0.853811,22.35642,-387.2360)"
       gradientUnits="userSpaceOnUse"
       id="radialGradient4034"
       xlink:href="#linearGradient1077"
       inkscape:collect="always" />
  </defs>
  <sodipodi:namedview
     inkscape:window-y="23"
     inkscape:window-x="2"
     inkscape:window-height="511"
     inkscape:window-width="755"
     inkscape:current-layer="layer1"
     inkscape:document-units="px"
     inkscape:cy="520.00000"
     inkscape:cx="375.00000"
     inkscape:zoom="0.35000000"
     inkscape:pageshadow="2"
     inkscape:pageopacity="0.0"
     borderopacity="1.0"
     bordercolor="#666666"
     pagecolor="#ffffff"
     id="base" />
  <metadata
     id="metadata4">
    <rdf:RDF
       id="RDF5">
      <cc:Work
         id="Work6"
         rdf:about="">
        <dc:format
           id="format7">image/svg+xml</dc:format>
        <dc:type
           rdf:resource="http://purl.org/dc/dcmitype/StillImage"
           id="type9" />
      </cc:Work>
    </rdf:RDF>
  </metadata>
  <g
     id="layer1"
     inkscape:groupmode="layer"
     inkscape:label="Layer 1">
    <rect
       style="fill:url(#radialGradient4034);fill-opacity:0.75000000;fill-rule:evenodd;stroke:#000000;stroke-width:0.89426908pt"
       id="rect1569"
       width="74.385429"
       height="68.186623"
       x="70.819649"
       y="0.55902147" />
    <rect
       style="fill:url(#radialGradient4031);fill-opacity:0.75000000;fill-rule:evenodd;stroke:#000000;stroke-width:0.89426908pt"
       id="rect1570"
       width="74.385429"
       height="68.186623"
       x="153.66647"
       y="0.55902147" />
  </g>
</svg>
