<?xml version="1.0" encoding="UTF-8" standalone="no"?>
<!-- Created with Inkscape (http://www.inkscape.org/) -->
<svg
   xmlns:xml="http://www.w3.org/XML/1998/namespace"
   xmlns:dc="http://purl.org/dc/elements/1.1/"
   xmlns:cc="http://web.resource.org/cc/"
   xmlns:rdf="http://www.w3.org/1999/02/22-rdf-syntax-ns#"
   xmlns:svg="http://www.w3.org/2000/svg"
   xmlns="http://www.w3.org/2000/svg"
   xmlns:sodipodi="http://sodipodi.sourceforge.net/DTD/sodipodi-0.dtd"
   xmlns:inkscape="http://www.inkscape.org/namespaces/inkscape"
   sodipodi:docname="advanced-f15.svg"
   sodipodi:docbase="/home/aaron/notes/inkdoc/advanced"
   inkscape:version="0.41+cvs"
   sodipodi:version="0.32"
   id="svg2223"
   height="1052.3622047"
   width="744.09448819">
  <defs
     id="defs3" />
  <sodipodi:namedview
     inkscape:window-y="21"
     inkscape:window-x="0"
     inkscape:window-height="513"
     inkscape:window-width="753"
     inkscape:current-layer="layer1"
     inkscape:document-units="px"
     inkscape:cy="891.46092"
     inkscape:cx="270.34271"
     inkscape:zoom="0.70000000"
     inkscape:pageshadow="2"
     inkscape:pageopacity="0.0"
     borderopacity="1.0"
     bordercolor="#666666"
     pagecolor="#ffffff"
     id="base" />
  <metadata
     id="metadata4">
    <rdf:RDF
       id="RDF5">
      <cc:Work
         id="Work6"
         rdf:about="">
        <dc:format
           id="format7">image/svg+xml</dc:format>
        <dc:type
           rdf:resource="http://purl.org/dc/dcmitype/StillImage"
           id="type9" />
      </cc:Work>
    </rdf:RDF>
  </metadata>
  <g
     id="layer1"
     inkscape:groupmode="layer"
     inkscape:label="Layer 1">
    <text
       sodipodi:insensitive="true"
       sodipodi:linespacing="110.00000%"
       id="text1649"
       y="4.2368875"
       x="66.563278"
       style="font-size:5.5761971;font-style:normal;font-weight:normal;line-height:110.00000%;writing-mode:lr-tb;text-anchor:start;fill:#000000;fill-opacity:1.0000000;stroke:none;stroke-width:3.0000000pt;stroke-linecap:butt;stroke-linejoin:miter;stroke-opacity:1.0000000;font-family:serif"
       xml:space="preserve"><tspan
         id="tspan1651"
         sodipodi:role="line"
         y="4.2368875"
         x="66.563278">Letter spacing decreased, some letter pairs manually kerned</tspan></text>
    <text
       id="text2406"
       y="34.802681"
       x="67.866859"
       style="font-size:33.599998;font-style:normal;font-variant:normal;font-weight:normal;font-stretch:normal;writing-mode:lr-tb;text-anchor:start;fill:#000000;fill-opacity:1.0000000;stroke:none;stroke-width:1.0000000pt;stroke-linecap:butt;stroke-linejoin:miter;stroke-opacity:1.0000000;font-family:serif"
       xml:space="preserve"><tspan
         dx="0 0 -0.1418031 -0.42540932 -0.42540932 0.42540932 0.42540932 -0.87514824 1.1344248 -0.5672124 -0.5672124"
         style="letter-spacing:-1.2478520"
         id="tspan1647">Inspiration</tspan></text>
  </g>
</svg>
