<?xml version="1.0" encoding="UTF-8" standalone="no"?>
<!-- Created with Inkscape (http://www.inkscape.org/) -->
<svg
   xmlns:dc="http://purl.org/dc/elements/1.1/"
   xmlns:cc="http://web.resource.org/cc/"
   xmlns:rdf="http://www.w3.org/1999/02/22-rdf-syntax-ns#"
   xmlns:svg="http://www.w3.org/2000/svg"
   xmlns="http://www.w3.org/2000/svg"
   xmlns:sodipodi="http://sodipodi.sourceforge.net/DTD/sodipodi-0.dtd"
   xmlns:inkscape="http://www.inkscape.org/namespaces/inkscape"
   sodipodi:docname="calligraphy-f09.svg"
   sodipodi:docbase="/home/aaron/notes/inkdoc/calligraphy"
   inkscape:version="0.41+cvs"
   sodipodi:version="0.32"
   id="svg3054"
   height="1052.3622047"
   width="744.09448819">
  <defs
     id="defs3" />
  <sodipodi:namedview
     inkscape:window-y="21"
     inkscape:window-x="4"
     inkscape:window-height="513"
     inkscape:window-width="753"
     inkscape:current-layer="layer1"
     inkscape:document-units="px"
     inkscape:cy="992.71066"
     inkscape:cx="179.27540"
     inkscape:zoom="2.8000000"
     inkscape:pageshadow="2"
     inkscape:pageopacity="0.0"
     borderopacity="1.0"
     bordercolor="#666666"
     pagecolor="#ffffff"
     id="base" />
  <metadata
     id="metadata4">
    <rdf:RDF
       id="RDF5">
      <cc:Work
         id="Work6"
         rdf:about="">
        <dc:format
           id="format7">image/svg+xml</dc:format>
        <dc:type
           rdf:resource="http://purl.org/dc/dcmitype/StillImage"
           id="type9" />
      </cc:Work>
    </rdf:RDF>
  </metadata>
  <g
     id="layer1"
     inkscape:groupmode="layer"
     inkscape:label="Layer 1">
    <path
       sodipodi:insensitive="true"
       id="path8610"
       d="M 10.512859,1.4559000 L 300.81310,1.4559000"
       style="fill:none;fill-opacity:0.75000000;fill-rule:evenodd;stroke:#aeaeae;stroke-width:0.59489685;stroke-linecap:butt;stroke-linejoin:miter;stroke-miterlimit:4.0000000;stroke-dasharray:0.59489660 1.7846897 ;stroke-dashoffset:0.0000000;stroke-opacity:1.0000000;display:block" />
    <path
       sodipodi:insensitive="true"
       id="path8611"
       d="M 10.512821,29.913100 L 300.81310,29.913100"
       style="fill:none;fill-opacity:0.75000000;fill-rule:evenodd;stroke:#aeaeae;stroke-width:0.59489685;stroke-linecap:butt;stroke-linejoin:miter;stroke-miterlimit:4.0000000;stroke-dasharray:0.59489660 1.7846897 ;stroke-dashoffset:0.0000000;stroke-opacity:1.0000000;display:block" />
    <path
       d="M 28.442000,4.8689000 C 33.528917,-0.55400000 38.730079,-2.1945000 38.467431,5.6415000 C 38.375297,11.552100 37.530857,17.463000 37.918637,23.374300 C 38.350397,25.786700 38.309280,28.416200 41.278052,27.596000 C 46.515671,24.703400 34.724792,32.110500 40.305507,27.478100 L 46.223000,25.065000 C 43.210356,27.732700 39.397176,29.177900 35.650807,30.624900 C 32.599161,31.193300 32.519673,28.471500 32.088205,25.990800 C 31.686271,20.071200 32.525601,14.151800 32.625669,8.2326000 C 32.868106,1.6356000 28.502599,4.3592000 35.844207,0.98420000 C 36.457365,0.70230000 33.684611,1.9521000 34.280117,2.2696000 L 28.442000,4.8689000 z "
       id="path8631"
       style="fill:#000000;fill-opacity:1.0000000;fill-rule:nonzero;stroke:none;stroke-width:1.0000000pt;stroke-linecap:butt;stroke-linejoin:miter;stroke-opacity:1.0000000;display:block" />
    <path
       d="M 43.084991,3.1675000 C 48.113880,0.49320000 50.885854,-2.3913000 53.320900,3.2172000 C 55.047276,8.4218000 54.277682,13.996900 54.184993,19.381600 C 54.365984,22.125600 53.534001,25.332700 54.769472,27.710900 C 57.343243,28.247300 60.587496,26.204800 51.767842,30.000400 C 49.867601,30.818100 54.990562,27.377100 56.364698,25.830700 L 62.274504,23.398800 C 59.192777,26.921200 53.974838,32.041500 49.030881,30.523100 C 47.413583,28.242300 48.682307,24.667100 48.345110,21.976900 C 48.434849,16.624400 49.211182,11.080500 47.521669,5.9021000 C 45.229874,0.61550000 39.820044,4.9728000 48.923108,0.56820000 L 43.084991,3.1675000 z "
       id="path8642"
       style="fill:#000000;fill-opacity:1.0000000;fill-rule:nonzero;stroke:none;stroke-width:1.0000000pt;stroke-linecap:butt;stroke-linejoin:miter;stroke-opacity:1.0000000;display:block" />
    <path
       d="M 58.728188,5.5940000 C 59.737827,2.8023000 67.427686,-1.7822000 69.516872,1.7934000 C 70.712070,6.5429000 70.205450,11.440300 70.009020,16.266800 C 70.022990,19.226200 70.098560,22.165100 69.939883,25.119200 C 68.960623,28.464700 74.483030,26.368500 73.842720,26.706000 C 65.023247,31.355100 68.948316,29.312300 70.876510,27.835600 C 73.228630,25.756700 70.315060,28.380700 72.424140,26.333200 L 78.240750,23.686200 C 76.159100,25.785600 79.036120,23.109500 76.711220,25.228800 C 74.311950,27.120300 64.854547,34.266500 64.200673,27.930000 C 64.344611,24.975800 64.308283,22.037300 64.269506,19.077100 C 64.455602,14.284000 64.976915,9.4295000 63.827822,4.7045000 C 62.114948,1.8160000 54.388723,7.2622000 65.316468,1.6994000 C 65.723190,1.4924000 64.043039,2.5812000 64.459704,2.7674000 L 58.728188,5.5940000 z "
       id="path8644"
       style="fill:#000000;fill-opacity:1.0000000;fill-rule:nonzero;stroke:none;stroke-width:1.0000000pt;stroke-linecap:butt;stroke-linejoin:miter;stroke-opacity:1.0000000;display:block" />
    <path
       d="M 88.988064,3.5669000 C 93.643199,3.5669000 98.298334,3.5669000 102.95347,3.5669000 C 106.34523,3.6195000 109.70065,2.4691000 113.05351,3.0289000 L 107.36566,5.9424000 C 104.01416,5.5108000 100.67120,6.6038000 97.290083,6.5276000 C 92.634948,6.5276000 87.979813,6.5276000 83.324678,6.5276000 L 88.988064,3.5669000 z "
       id="path8647"
       style="fill:#000000;fill-opacity:1.0000000;fill-rule:nonzero;stroke:none;stroke-width:1.0000000pt;stroke-linecap:butt;stroke-linejoin:miter;stroke-opacity:1.0000000;display:block" />
    <path
       d="M 88.332483,8.4479000 C 92.625002,9.4441000 97.113663,8.7975000 101.47367,8.4694000 C 104.76499,8.2156000 108.06507,8.1208000 111.36510,8.0953000 L 105.70246,11.057400 C 102.40497,11.088600 99.107697,11.189600 95.819194,11.447100 C 91.439862,11.775700 86.995234,12.344100 82.669097,11.408600 L 88.332483,8.4479000 z "
       id="path8651"
       style="fill:#000000;fill-opacity:1.0000000;fill-rule:nonzero;stroke:none;stroke-width:1.0000000pt;stroke-linecap:butt;stroke-linejoin:miter;stroke-opacity:1.0000000;display:block" />
    <path
       d="M 87.942137,14.723400 C 91.504098,14.857400 95.040202,14.525700 98.589878,14.296000 C 102.46987,14.007400 106.36342,14.138900 110.24125,13.855500 L 104.58652,16.832800 C 100.70813,17.103800 96.813239,16.968600 92.934263,17.271600 C 89.382655,17.507300 85.842483,17.811100 82.278751,17.684200 L 87.942137,14.723400 z "
       id="path8654"
       style="fill:#000000;fill-opacity:1.0000000;fill-rule:nonzero;stroke:none;stroke-width:1.0000000pt;stroke-linecap:butt;stroke-linejoin:miter;stroke-opacity:1.0000000;display:block" />
    <path
       d="M 86.937914,20.301700 C 89.751623,20.301700 92.565333,20.301700 95.379043,20.301700 C 99.278578,20.196800 103.19977,20.510700 107.08684,20.133300 C 108.54597,20.000600 110.01137,19.977300 111.47534,19.956300 L 105.81346,22.919900 C 104.35242,22.945000 102.89009,22.974400 101.43454,23.115100 C 97.542717,23.469600 93.617801,23.151400 89.715657,23.262500 C 86.901947,23.262500 84.088238,23.262500 81.274528,23.262500 L 86.937914,20.301700 z "
       id="path8656"
       style="fill:#000000;fill-opacity:1.0000000;fill-rule:nonzero;stroke:none;stroke-width:1.0000000pt;stroke-linecap:butt;stroke-linejoin:miter;stroke-opacity:1.0000000;display:block" />
    <path
       d="M 130.55069,5.0030000 C 127.68651,4.6390000 118.77671,8.1312000 128.55417,4.4095000 C 129.06404,4.2155000 127.60911,4.9561000 127.15347,5.2561000 C 125.68141,6.2255000 124.43595,7.3473000 123.19802,8.5924000 C 117.71369,14.803200 118.57083,24.024100 126.63280,27.249100 C 123.91006,31.061200 143.08624,24.607100 139.59266,26.027600 C 131.61947,29.269400 136.40431,27.238100 138.48242,25.604000 L 144.27428,22.903200 C 137.80862,27.987400 129.14194,32.323400 120.84093,29.949800 C 112.77897,26.724900 111.92183,17.504000 117.40616,11.293200 C 122.29703,6.3741000 129.33991,2.4905000 136.34255,2.3022000 L 130.55069,5.0030000 z "
       id="path8668"
       style="fill:#000000;fill-opacity:1.0000000;fill-rule:nonzero;stroke:none;stroke-width:1.0000000pt;stroke-linecap:butt;stroke-linejoin:miter;stroke-opacity:1.0000000;display:block" />
    <path
       d="M 151.46923,3.6085000 C 148.74589,3.5641000 141.68675,6.6818000 151.66240,2.5381000 C 152.03097,2.3850000 150.96778,2.9322000 150.63262,3.1489000 C 149.19407,4.0789000 147.96026,5.2190000 146.76620,6.4373000 C 142.08890,11.003800 141.43118,17.640900 145.88854,22.536800 C 150.19417,27.267700 155.99746,27.191100 161.83427,26.018200 C 164.15480,25.578700 170.57649,22.990300 160.88136,27.080500 C 159.27331,27.758900 163.68633,24.945300 164.77911,23.584500 L 170.57097,20.883700 C 167.02767,25.296200 161.43786,27.394100 156.04241,28.719000 C 150.20560,29.891900 144.40231,29.968500 140.09667,25.237500 C 135.63932,20.341700 136.29704,13.704600 140.97433,9.1381000 C 145.22756,4.7985000 151.19350,1.4849000 157.26110,0.90770000 L 151.46923,3.6085000 z "
       id="path8671"
       style="fill:#000000;fill-opacity:1.0000000;fill-rule:nonzero;stroke:none;stroke-width:1.0000000pt;stroke-linecap:butt;stroke-linejoin:miter;stroke-opacity:1.0000000;display:block" />
    <path
       d="M 152.24992,8.0156000 C 155.88151,1.7837000 167.56291,-0.19560000 174.19483,1.8097000 C 182.08656,6.2595000 181.35922,19.276200 175.01363,24.772500 C 170.39901,27.491700 165.49457,29.922200 160.24596,31.030800 L 166.03782,28.330000 C 176.04215,26.216900 159.89425,31.628400 169.22176,27.473200 C 175.56735,21.977000 176.29469,8.9603000 168.40297,4.5105000 C 165.32820,3.5808000 162.33014,3.5390000 159.17201,4.1300000 C 158.11627,4.3275000 155.11850,5.4709000 156.05423,4.9436000 C 165.17175,-0.19400000 158.90068,3.0309000 158.04179,5.3148000 L 152.24992,8.0156000 z "
       id="path8700"
       style="fill:#000000;fill-opacity:1.0000000;fill-rule:nonzero;stroke:none;stroke-width:1.0000000pt;stroke-linecap:butt;stroke-linejoin:miter;stroke-opacity:1.0000000;display:block" />
    <path
       d="M 174.95338,7.3185000 C 181.19850,0.20760000 195.59437,-2.3349000 202.40443,5.2300000 C 210.41127,18.802200 196.63790,27.948300 184.41793,30.048800 C 182.69607,30.282800 181.01703,30.143900 179.32395,29.837400 L 185.11581,27.136600 C 186.80890,27.443100 188.48794,27.582000 190.20979,27.348000 C 191.68291,27.094800 195.74507,25.400700 194.57792,26.334500 C 193.50171,27.195500 192.14346,27.635000 190.87539,28.175000 C 187.43344,29.640800 195.32739,25.983100 197.29700,22.675300 C 199.96645,18.192000 199.18065,12.229400 196.61256,7.9308000 C 193.36631,4.3247000 189.16864,3.1704000 184.36998,3.4584000 C 182.91973,3.5454000 178.96226,5.0638000 180.06087,4.1131000 C 181.23051,3.1010000 182.80583,2.6852000 184.15322,1.9255000 C 185.41428,1.2146000 179.48917,3.8979000 180.74524,4.6177000 L 174.95338,7.3185000 z "
       id="path8705"
       style="fill:#000000;fill-opacity:1.0000000;fill-rule:nonzero;stroke:none;stroke-width:1.0000000pt;stroke-linecap:butt;stroke-linejoin:miter;stroke-opacity:1.0000000;display:block" />
    <path
       d="M 214.00133,6.7046000 C 217.51264,3.9935000 223.01157,-1.3637000 226.47320,2.9797000 C 229.05538,7.4155000 229.67029,12.626400 231.20999,17.475000 C 231.92794,20.179100 233.34105,22.608300 234.60219,25.081300 C 233.67135,27.742500 238.82155,27.250000 238.39634,27.452300 C 229.26630,31.797100 233.27244,29.927300 235.26801,28.521900 C 235.58980,28.280100 235.91158,28.038300 236.23337,27.796500 L 242.02523,25.095700 C 241.70345,25.337500 241.38166,25.579300 241.05987,25.821100 C 237.50517,28.324600 230.74050,33.713800 228.81033,27.782100 C 227.54919,25.309100 226.13608,22.879900 225.41813,20.175800 C 223.87842,15.327200 223.26352,10.116300 220.68133,5.6805000 C 219.97522,4.7945000 216.59916,4.6953000 217.62002,4.2040000 C 227.57957,-0.58930000 221.78842,1.9874000 219.79320,4.0038000 L 214.00133,6.7046000 z "
       id="path8711"
       style="fill:#000000;fill-opacity:1.0000000;fill-rule:nonzero;stroke:none;stroke-width:1.0000000pt;stroke-linecap:butt;stroke-linejoin:miter;stroke-opacity:1.0000000;display:block" />
    <path
       d="M 237.92260,4.3941000 C 224.15305,11.243000 239.53524,-0.58170000 242.39108,1.8420000 C 245.53590,5.4482000 245.77067,10.021000 247.10754,14.379700 C 248.53798,17.690500 249.83363,21.064000 251.20025,24.401900 C 252.89899,30.101500 263.53546,23.805700 253.08804,28.637200 C 253.33772,28.466200 253.58740,28.295100 253.83708,28.124000 L 259.62894,25.423200 C 259.37926,25.594300 259.12958,25.765400 258.87991,25.936500 C 255.40140,27.568700 247.73493,33.028200 245.40839,27.102700 C 244.04176,23.764800 242.74612,20.391300 241.31568,17.080500 C 239.97881,12.721800 239.74404,8.1489000 236.59922,4.5428000 C 234.24581,2.5455000 233.67350,4.3585000 240.60138,1.1866000 C 240.77443,1.1074000 229.18867,10.490900 232.13074,7.0949000 L 237.92260,4.3941000 z "
       id="path8713"
       style="fill:#000000;fill-opacity:1.0000000;fill-rule:nonzero;stroke:none;stroke-width:1.0000000pt;stroke-linecap:butt;stroke-linejoin:miter;stroke-opacity:1.0000000;display:block" />
    <path
       d="M 269.04512,5.3873000 C 271.14901,3.2887000 279.49664,-1.8982000 279.24692,2.4930000 C 277.25507,8.4176000 274.31909,14.121200 270.72658,19.216700 C 268.88789,21.736700 267.02447,24.318100 265.48317,27.016200 C 267.20852,28.189000 270.15414,26.455800 272.04755,25.673600 L 266.25569,28.420500 C 264.36227,29.202700 261.41665,30.935900 259.69131,29.763100 C 261.23260,27.065000 263.09603,24.483600 264.93471,21.963600 C 268.52723,16.868100 271.46321,11.164500 273.45506,5.2399000 C 273.50462,4.3683000 270.44784,4.3211000 271.21980,3.9393000 C 280.76291,-0.78040000 276.70475,0.96580000 274.83699,2.6404000 L 269.04512,5.3873000 z "
       id="path8725"
       style="fill:#000000;fill-opacity:1.0000000;fill-rule:nonzero;stroke:none;stroke-width:1.0000000pt;stroke-linecap:butt;stroke-linejoin:miter;stroke-opacity:1.0000000;display:block" />
    <path
       d="M 280.52057,5.4551000 C 282.62020,2.8221000 287.56879,-0.50800000 289.98901,0.99910000 C 288.19321,8.1977000 282.60656,14.178200 278.84110,20.459600 C 277.96725,22.897200 273.40849,28.000600 278.24261,26.508800 C 279.14181,26.376200 279.97035,26.053200 280.80594,25.709900 L 275.12798,28.744800 C 274.29240,29.088000 273.46385,29.411000 272.56465,29.543700 C 267.73054,31.035500 272.28930,25.932000 273.16315,23.494500 C 276.92861,17.213200 282.51526,11.232600 284.31105,4.0340000 C 283.70068,3.6539000 281.54583,4.3630000 282.17401,4.0154000 C 291.47381,-1.1313000 287.69264,0.35730000 286.19853,2.4203000 L 280.52057,5.4551000 z "
       id="path8727"
       style="fill:#000000;fill-opacity:1.0000000;fill-rule:nonzero;stroke:none;stroke-width:1.0000000pt;stroke-linecap:butt;stroke-linejoin:miter;stroke-opacity:1.0000000;display:block" />
  </g>
</svg>
