<?xml version="1.0" encoding="UTF-8" standalone="no"?>
<!-- Created with Inkscape (http://www.inkscape.org/) -->
<svg
   xmlns:xml="http://www.w3.org/XML/1998/namespace"
   xmlns:dc="http://purl.org/dc/elements/1.1/"
   xmlns:cc="http://web.resource.org/cc/"
   xmlns:rdf="http://www.w3.org/1999/02/22-rdf-syntax-ns#"
   xmlns:svg="http://www.w3.org/2000/svg"
   xmlns="http://www.w3.org/2000/svg"
   xmlns:sodipodi="http://sodipodi.sourceforge.net/DTD/sodipodi-0.dtd"
   xmlns:inkscape="http://www.inkscape.org/namespaces/inkscape"
   sodipodi:docname="calligraphy-f03.svg"
   sodipodi:docbase="/home/aaron/notes/inkdoc/calligraphy"
   inkscape:version="0.41+cvs"
   sodipodi:version="0.32"
   id="svg2265"
   height="1052.3622047"
   width="744.09448819">
  <defs
     id="defs3" />
  <sodipodi:namedview
     inkscape:window-y="21"
     inkscape:window-x="4"
     inkscape:window-height="513"
     inkscape:window-width="753"
     inkscape:current-layer="layer1"
     inkscape:document-units="px"
     inkscape:cy="965.73670"
     inkscape:cx="227.77767"
     inkscape:zoom="1.4000000"
     inkscape:pageshadow="2"
     inkscape:pageopacity="0.0"
     borderopacity="1.0"
     bordercolor="#666666"
     pagecolor="#ffffff"
     id="base" />
  <metadata
     id="metadata4">
    <rdf:RDF
       id="RDF5">
      <cc:Work
         id="Work6"
         rdf:about="">
        <dc:format
           id="format7">image/svg+xml</dc:format>
        <dc:type
           rdf:resource="http://purl.org/dc/dcmitype/StillImage"
           id="type9" />
      </cc:Work>
    </rdf:RDF>
  </metadata>
  <g
     id="layer1"
     inkscape:groupmode="layer"
     inkscape:label="Layer 1">
    <text
       sodipodi:insensitive="true"
       id="text1987"
       y="4.5588474"
       x="39.896687"
       style="font-size:6.0000000;font-style:normal;font-weight:normal;fill:#000000;fill-opacity:1.0000000;stroke:none;stroke-width:1.0000000pt;stroke-linecap:butt;stroke-linejoin:miter;stroke-opacity:1.0000000;display:block;font-family:sans-serif"
       xml:space="preserve"><tspan
         y="4.5588474"
         x="39.896687"
         id="tspan1988"
         sodipodi:role="line">thinning = 0 (uniform width) </tspan></text>
    <text
       sodipodi:insensitive="true"
       id="text1990"
       y="74.558846"
       x="62.396687"
       style="font-size:6.0000000;font-style:normal;font-weight:normal;fill:#000000;fill-opacity:1.0000000;stroke:none;stroke-width:1.0000000pt;stroke-linecap:butt;stroke-linejoin:miter;stroke-opacity:1.0000000;display:block;font-family:sans-serif"
       xml:space="preserve"><tspan
         y="74.558846"
         x="62.396687"
         id="tspan1991"
         sodipodi:role="line">thinning = 10</tspan></text>
    <text
       sodipodi:insensitive="true"
       id="text1993"
       y="139.55885"
       x="60.851486"
       style="font-size:6.0000000;font-style:normal;font-weight:normal;fill:#000000;fill-opacity:1.0000000;stroke:none;stroke-width:1.0000000pt;stroke-linecap:butt;stroke-linejoin:miter;stroke-opacity:1.0000000;display:block;font-family:sans-serif"
       xml:space="preserve"><tspan
         y="139.55885"
         x="60.851486"
         id="tspan1994"
         sodipodi:role="line">thinning = 40</tspan></text>
    <text
       sodipodi:insensitive="true"
       id="text1996"
       y="4.5588474"
       x="212.39668"
       style="font-size:6.0000000;font-style:normal;font-weight:normal;fill:#000000;fill-opacity:1.0000000;stroke:none;stroke-width:1.0000000pt;stroke-linecap:butt;stroke-linejoin:miter;stroke-opacity:1.0000000;display:block;font-family:sans-serif"
       xml:space="preserve"><tspan
         y="4.5588474"
         x="212.39668"
         id="tspan1997"
         sodipodi:role="line">thinning = -20</tspan></text>
    <text
       sodipodi:insensitive="true"
       id="text1999"
       y="84.558846"
       x="212.39668"
       style="font-size:6.0000000;font-style:normal;font-weight:normal;fill:#000000;fill-opacity:1.0000000;stroke:none;stroke-width:1.0000000pt;stroke-linecap:butt;stroke-linejoin:miter;stroke-opacity:1.0000000;display:block;font-family:sans-serif"
       xml:space="preserve"><tspan
         y="84.558846"
         x="212.39668"
         id="tspan2000"
         sodipodi:role="line">thinning = -60</tspan></text>
    <path
       d="M 16.131202,33.033400 C 24.467782,32.903200 32.792932,33.194400 41.119634,33.560700 C 54.522085,33.987200 67.935667,34.252600 81.345765,34.148200 C 97.779404,33.586300 114.16516,34.114400 130.56008,35.225400 C 136.58624,35.663300 133.58386,35.444200 139.56722,35.882700 L 139.56722,41.465900 C 133.58386,41.027400 136.58624,41.246500 130.56008,40.808600 C 114.16516,39.697600 97.779404,39.169600 81.345765,39.731500 C 67.935667,39.835900 54.522085,39.570400 41.119634,39.143900 C 32.792932,38.777700 24.467782,38.486400 16.131202,38.616600 L 16.131202,33.033400 z "
       id="path1948"
       style="fill:#000000;fill-opacity:1.0000000;fill-rule:nonzero;stroke:none;stroke-width:1.0000000pt;stroke-linecap:butt;stroke-linejoin:miter;stroke-opacity:1.0000000;display:block" />
    <path
       d="M 23.277534,91.500100 C 23.292287,89.621800 23.255573,87.742400 23.321792,85.865200 C 23.345495,85.193300 46.750196,84.717300 47.665536,84.704000 C 69.503148,84.691900 91.265148,82.701500 113.07767,81.998600 C 121.84813,81.839300 130.62047,81.934700 139.39184,81.929700 L 139.39184,86.285400 C 130.62175,86.108200 121.85014,85.897500 113.07767,85.968200 C 91.247452,86.507500 69.513504,88.932100 47.665536,89.066700 C 41.604056,89.273300 35.559015,89.606000 29.529955,90.284400 C 27.806195,90.478500 26.074151,90.702400 24.379004,91.076000 C 24.017060,91.155800 23.335595,91.790800 23.321792,91.420500 C 23.253712,89.593600 23.292287,87.764400 23.277534,85.936500 L 23.277534,91.500100 z "
       id="path1949"
       style="fill:#000000;fill-opacity:1.0000000;fill-rule:nonzero;stroke:none;stroke-width:1.0000000pt;stroke-linecap:butt;stroke-linejoin:miter;stroke-opacity:1.0000000;display:block" />
    <path
       d="M 22.674173,93.071900 C 33.535239,93.396400 44.405457,93.286300 55.271938,93.648700 C 81.501620,94.366700 107.77074,94.632400 133.99572,93.570900 C 135.18856,93.512700 136.38140,93.454400 137.57424,93.396100 L 137.57424,97.833900 C 136.38140,97.822200 135.18856,97.810400 133.99572,97.798700 C 107.75574,97.616200 81.512530,98.110400 55.271938,97.726600 C 44.397023,97.631000 33.517623,97.707000 22.674173,98.637600 L 22.674173,93.071900 z "
       id="path1950"
       style="fill:#000000;fill-opacity:1.0000000;fill-rule:nonzero;stroke:none;stroke-width:1.0000000pt;stroke-linecap:butt;stroke-linejoin:miter;stroke-opacity:1.0000000;display:block" />
    <path
       d="M 26.301992,102.20540 C 41.711976,101.80900 57.144643,102.06610 72.568166,102.43760 C 96.720845,102.96720 120.90023,102.47030 145.01456,101.01030 L 145.01456,105.45480 C 120.86999,104.62550 96.717692,105.49070 72.568166,105.55960 C 57.120447,105.65460 41.633345,105.66080 26.301992,107.77990 L 26.301992,102.20540 z "
       id="path1951"
       style="fill:#000000;fill-opacity:1.0000000;fill-rule:nonzero;stroke:none;stroke-width:1.0000000pt;stroke-linecap:butt;stroke-linejoin:miter;stroke-opacity:1.0000000;display:block" />
    <path
       d="M 29.271797,112.48550 C 44.610548,111.96510 59.928272,110.30890 75.288505,109.72570 C 97.096270,109.23390 118.90201,110.63830 140.63354,112.34420 L 140.63354,116.25030 C 118.98295,113.52490 97.111282,112.04980 75.288505,112.82900 C 59.847373,113.74700 44.558731,115.78700 29.271797,118.06000 L 29.271797,112.48550 z "
       id="path1952"
       style="fill:#000000;fill-opacity:1.0000000;fill-rule:nonzero;stroke:none;stroke-width:1.0000000pt;stroke-linecap:butt;stroke-linejoin:miter;stroke-opacity:1.0000000;display:block" />
    <path
       d="M 16.881031,27.194200 C 16.895784,25.333200 16.849244,23.470600 16.925290,21.611000 C 16.940725,21.233600 17.681129,21.625600 18.058628,21.611000 C 19.143945,21.569100 20.222798,21.424600 21.298420,21.284400 C 27.511358,20.474800 33.709925,19.579000 39.934898,18.861000 C 66.427487,15.841600 93.070855,15.315000 119.65978,17.124000 C 128.69169,17.811000 137.68948,18.852500 146.65851,20.106000 L 146.65851,25.689300 C 137.68948,24.435700 128.69169,23.394200 119.65978,22.707200 C 93.070855,20.898200 66.427487,21.424800 39.934898,24.444200 C 38.979693,24.554500 16.940499,27.566200 16.925290,27.194200 C 16.849244,25.334700 16.895784,23.472100 16.881031,21.611000 L 16.881031,27.194200 z "
       id="path1953"
       style="fill:#000000;fill-opacity:1.0000000;fill-rule:nonzero;stroke:none;stroke-width:1.0000000pt;stroke-linecap:butt;stroke-linejoin:miter;stroke-opacity:1.0000000;display:block" />
    <path
       d="M 20.307730,51.181200 C 20.230306,51.232900 20.220326,51.135400 20.183489,51.116100 C 20.211547,49.242200 20.160977,47.365500 20.267663,45.494400 C 20.315059,44.663300 43.595573,43.878200 44.650307,43.875500 C 76.758355,46.472300 108.70236,42.722400 140.61861,39.645200 C 142.31643,39.470700 144.01425,39.296300 145.71207,39.121700 L 145.71207,44.705000 C 144.01425,44.879500 142.31643,45.053900 140.61861,45.228500 C 108.70236,48.305700 76.758355,52.055500 44.650307,49.458800 C 39.196360,49.472500 33.800910,49.664400 28.368985,50.158600 C 26.115253,50.363700 23.847325,50.536100 21.598017,50.787200 C 21.146919,50.837500 20.294703,51.530700 20.267663,51.077700 C 20.157545,49.232400 20.211547,47.381200 20.183489,45.532900 C 20.224903,45.554500 20.221377,45.645000 20.307730,45.597900 L 20.307730,51.181200 z "
       id="path1956"
       style="fill:#000000;fill-opacity:1.0000000;fill-rule:nonzero;stroke:none;stroke-width:1.0000000pt;stroke-linecap:butt;stroke-linejoin:miter;stroke-opacity:1.0000000;display:block" />
    <path
       d="M 27.699998,26.408400 C 41.091482,25.645000 54.474834,26.250500 67.866398,26.699300 C 93.277870,27.285700 118.67776,25.985600 144.09420,26.142100 L 144.09420,31.725400 C 118.67776,31.568800 93.277870,32.868900 67.866398,32.282500 C 54.474834,31.833700 41.091482,31.228200 27.699998,31.991700 L 27.699998,26.408400 z "
       id="path1957"
       style="fill:#000000;fill-opacity:1.0000000;fill-rule:nonzero;stroke:none;stroke-width:1.0000000pt;stroke-linecap:butt;stroke-linejoin:miter;stroke-opacity:1.0000000;display:block" />
    <path
       d="M 37.391214,148.58280 C 51.878933,149.97370 66.616346,149.11020 81.183694,148.99970 C 97.682870,149.53200 114.17557,148.94320 130.67430,148.78820 C 131.38069,148.76860 132.08707,148.74900 132.79346,148.72940 L 132.79346,151.59880 C 132.08707,151.53550 131.38069,151.47220 130.67430,151.40880 C 114.20742,150.08100 97.716680,149.00320 81.183694,149.11140 C 66.850671,149.22010 51.035649,149.15500 37.391214,153.74050 L 37.391214,148.58280 z "
       id="path1971"
       style="fill:#000000;fill-opacity:1.0000000;fill-rule:nonzero;stroke:none;stroke-width:1.0000000pt;stroke-linecap:butt;stroke-linejoin:miter;stroke-opacity:1.0000000;display:block" />
    <path
       d="M 28.866551,162.60590 C 38.487478,163.86240 48.517355,162.66690 58.225192,162.36620 C 76.966207,161.96460 95.706517,162.00220 114.43928,161.25420 C 122.41587,160.51510 130.41974,160.45280 138.41323,160.07260 L 138.41323,163.64710 C 130.41499,163.49660 122.44241,162.66900 114.43928,162.68750 C 95.701106,162.69810 76.939609,161.22390 58.225192,162.88050 C 48.323809,163.76700 38.267084,164.71500 28.866551,168.15410 L 28.866551,162.60590 z "
       id="path1972"
       style="fill:#000000;fill-opacity:1.0000000;fill-rule:nonzero;stroke:none;stroke-width:1.0000000pt;stroke-linecap:butt;stroke-linejoin:miter;stroke-opacity:1.0000000;display:block" />
    <path
       d="M 30.090762,172.91320 C 46.102000,173.50570 62.121155,172.23520 78.109562,171.36560 C 96.950121,170.21860 115.84495,170.77070 134.57540,168.19370 C 136.09081,167.97050 137.59572,167.68550 139.09953,167.39640 L 139.09953,171.30860 C 137.59146,171.29360 136.08340,171.29660 134.57540,171.27310 C 115.74583,170.45740 96.937242,169.88610 78.109562,171.47720 C 62.319901,172.33610 44.566790,171.06290 30.090762,178.35220 L 30.090762,172.91320 z "
       id="path1973"
       style="fill:#000000;fill-opacity:1.0000000;fill-rule:nonzero;stroke:none;stroke-width:1.0000000pt;stroke-linecap:butt;stroke-linejoin:miter;stroke-opacity:1.0000000;display:block" />
    <path
       d="M 33.517460,180.70560 C 45.379769,182.32570 57.567620,182.54190 69.549617,182.44440 C 92.091720,181.75000 114.94150,183.07240 137.14053,178.44210 C 139.03440,178.11060 140.89403,177.63010 142.74659,177.12370 L 142.74659,180.63750 C 140.88062,180.76260 139.01214,180.87720 137.14053,180.79430 C 114.61985,180.46010 92.103613,183.18230 69.549617,182.55600 C 57.532891,182.65390 45.150868,182.74540 33.517460,186.14890 L 33.517460,180.70560 z "
       id="path1974"
       style="fill:#000000;fill-opacity:1.0000000;fill-rule:nonzero;stroke:none;stroke-width:1.0000000pt;stroke-linecap:butt;stroke-linejoin:miter;stroke-opacity:1.0000000;display:block" />
    <path
       d="M 178.56218,19.701100 C 194.55144,16.654300 211.02049,16.371000 227.25114,15.455500 C 245.95197,14.072600 264.58020,16.160800 282.81880,20.204200 L 282.81880,27.197200 C 264.33181,25.701200 245.83391,23.669600 227.25114,24.757000 C 211.02962,25.271900 194.78373,25.766400 178.56218,25.425300 L 178.56218,19.701100 z "
       id="path1975"
       style="fill:#000000;fill-opacity:1.0000000;fill-rule:nonzero;stroke:none;stroke-width:1.0000000pt;stroke-linecap:butt;stroke-linejoin:miter;stroke-opacity:1.0000000;display:block" />
    <path
       d="M 180.36242,33.235800 C 196.37547,31.204800 212.49001,30.124800 228.61830,29.549300 C 251.00944,28.674700 273.45525,29.960000 295.83799,28.841100 L 295.83799,35.627100 C 273.88081,40.936800 250.93382,37.432100 228.61830,38.935500 C 212.56137,39.202800 196.37102,40.320100 180.36242,38.941400 L 180.36242,33.235800 z "
       id="path1976"
       style="fill:#000000;fill-opacity:1.0000000;fill-rule:nonzero;stroke:none;stroke-width:1.0000000pt;stroke-linecap:butt;stroke-linejoin:miter;stroke-opacity:1.0000000;display:block" />
    <path
       d="M 178.50753,42.173700 C 195.23882,40.828400 212.15727,41.562100 228.93883,41.807100 C 250.36656,42.163500 271.78446,43.089000 293.21506,43.294700 L 293.21506,50.490700 C 271.89707,53.201600 250.34534,51.341800 228.93883,51.324400 C 212.09535,50.890000 195.20810,50.200900 178.50753,47.861800 L 178.50753,42.173700 z "
       id="path1977"
       style="fill:#000000;fill-opacity:1.0000000;fill-rule:nonzero;stroke:none;stroke-width:1.0000000pt;stroke-linecap:butt;stroke-linejoin:miter;stroke-opacity:1.0000000;display:block" />
    <path
       d="M 179.08356,60.040400 C 190.18306,56.702700 201.87166,56.638800 213.35482,56.120400 C 238.02860,54.775000 262.94118,53.799200 287.51576,57.091300 C 288.28093,57.206500 289.04610,57.321700 289.81127,57.437000 L 289.81127,64.493500 C 289.04610,64.493500 288.28093,64.493400 287.51576,64.493300 C 262.79279,64.634800 238.07533,64.324900 213.35482,64.988300 C 201.92514,64.934000 190.47017,64.770400 179.08356,65.658500 L 179.08356,60.040400 z "
       id="path1978"
       style="fill:#000000;fill-opacity:1.0000000;fill-rule:nonzero;stroke:none;stroke-width:1.0000000pt;stroke-linecap:butt;stroke-linejoin:miter;stroke-opacity:1.0000000;display:block" />
    <path
       d="M 182.44813,102.27750 C 193.45549,98.396400 205.72484,97.168300 217.31568,96.126800 C 238.26157,94.435300 259.31358,93.184200 280.21208,95.980000 L 280.21208,108.89920 C 259.24679,109.32710 238.29986,110.72670 217.31568,110.09200 C 205.69648,109.96860 193.95433,109.76140 182.44813,108.05630 L 182.44813,102.27750 z "
       id="path1983"
       style="fill:#000000;fill-opacity:1.0000000;fill-rule:nonzero;stroke:none;stroke-width:1.0000000pt;stroke-linecap:butt;stroke-linejoin:miter;stroke-opacity:1.0000000;display:block" />
    <path
       d="M 175.22429,121.71520 C 189.83553,116.94380 205.19112,115.22040 220.39271,113.43870 C 240.55911,110.87170 260.78256,112.50830 280.71595,115.93890 L 280.71595,128.26110 C 260.65372,130.00370 240.55513,131.62990 220.39271,130.88180 C 205.61733,130.50730 189.46848,131.51400 175.22429,127.36020 L 175.22429,121.71520 z "
       id="path1984"
       style="fill:#000000;fill-opacity:1.0000000;fill-rule:nonzero;stroke:none;stroke-width:1.0000000pt;stroke-linecap:butt;stroke-linejoin:miter;stroke-opacity:1.0000000;display:block" />
    <path
       d="M 178.47720,142.94000 C 197.50775,138.01420 217.05719,135.92450 236.66695,134.97370 C 256.61866,134.00650 276.16678,137.59320 295.00220,143.88940 L 295.00220,155.27370 C 275.55621,155.66660 256.12637,153.40790 236.66695,154.19970 C 218.04349,154.10200 196.08148,155.58210 178.47720,148.68100 L 178.47720,142.94000 z "
       id="path1985"
       style="fill:#000000;fill-opacity:1.0000000;fill-rule:nonzero;stroke:none;stroke-width:1.0000000pt;stroke-linecap:butt;stroke-linejoin:miter;stroke-opacity:1.0000000;display:block" />
    <path
       d="M 188.87643,163.79560 C 187.44007,162.53730 188.80218,159.97470 188.88585,158.06690 C 188.97786,155.96910 218.16032,153.33790 219.95845,153.25510 C 244.10727,152.16060 268.31489,153.17550 292.16960,157.14300 L 292.16960,170.77490 C 268.15070,173.48510 243.86723,172.19690 219.95845,168.95950 C 218.00428,168.69330 188.95015,165.20750 188.88585,163.74510 C 188.80310,161.86310 188.84704,159.97770 188.82763,158.09400 C 188.84390,158.11890 188.83302,158.15960 188.87643,158.16860 L 188.87643,163.79560 z "
       id="path1986"
       style="fill:#000000;fill-opacity:1.0000000;fill-rule:nonzero;stroke:none;stroke-width:1.0000000pt;stroke-linecap:butt;stroke-linejoin:miter;stroke-opacity:1.0000000;display:block" />
  </g>
</svg>
